<?xml version="1.0" ?><!DOCTYPE svg  PUBLIC '-//W3C//DTD SVG 1.1//EN'  'http://www.w3.org/Graphics/SVG/1.1/DTD/svg11.dtd'><svg height="2048px" style="shape-rendering:geometricPrecision; text-rendering:geometricPrecision; image-rendering:optimizeQuality; fill-rule:evenodd; clip-rule:evenodd" viewBox="0 0 2048 2048" width="2048px" xml:space="preserve" xmlns="http://www.w3.org/2000/svg" xmlns:xlink="http://www.w3.org/1999/xlink"><defs><style type="text/css">
   <![CDATA[
    .fil0 {fill:none}
    .fil7 {fill:#288F5B}
    .fil5 {fill:#32A169}
    .fil6 {fill:#3AAD73}
    .fil3 {fill:#827E53}
    .fil8 {fill:#A7A37E}
    .fil4 {fill:#A8A481}
    .fil1 {fill:#E6E6E6}
    .fil2 {fill:#B8B48D;fill-rule:nonzero}
   ]]>
  </style></defs><g id="Layer_x0020_1"><rect class="fil0" height="1536" width="1535.99" x="256.007" y="255.999"/><g id="_278406560"><circle class="fil1" cx="941.922" cy="749.921" id="_278404760" r="429.922"/><polygon class="fil2" id="_278414048" points="1183.69,1080.12 1294.77,1273.84 1218.64,1317.5 1107.56,1123.78 "/><rect class="fil3" height="224.001" id="_278412344" rx="35.1036" ry="35.1036" transform="matrix(0.815681 -0.467718 1.16929 2.0392 1165.34 1348.05)" width="224.001"/><path class="fil4" d="M1404.07 1340.97l19.8106 34.5508 -182.404 105.31 -19.8106 -34.5496 182.404 -105.311zm35.0067 61.0512l19.8118 34.5508 -182.404 105.31 -19.8118 -34.5496 182.404 -105.311z" id="_278403872"/><g><g><path class="fil5" d="M1198.96 671.998c-120.526,95.0812 -319.477,387.271 -80.4686,427.538 17.3764,2.92677 16.826,3.72874 42.5268,2.94095 305.674,-9.38623 -6.99804,-344.927 37.9418,-430.479z" id="_278409008"/><path class="fil6" d="M1198.96 671.998c-70.8697,55.9075 -168.815,179.954 -188.934,280.873 0.0200788,49.891 30.7843,89.732 113.294,103.152 17.387,2.82756 16.8461,3.54331 42.5079,3.11811 82.8627,-1.37599 119.873,-24.9295 130.787,-60.0095 -3.48898,-101.102 -110.473,-248.929 -101.63,-314.003 0.522048,-4.89567 1.78228,-9.30946 3.97559,-13.1303z" id="_278403512"/><path class="fil7" d="M1108.12 1097.57c3.36378,0.708662 6.81024,1.37244 10.3665,1.97126 5.51693,0.929528 9.2256,1.6441 12.5421,2.1626l15.7358 -241.863 -38.6445 237.729z" id="_278414744"/></g><g><path class="fil5" d="M715.823 871.398c39.2422,148.414 228.083,447.239 360.168,244.015 9.60119,-14.7744 10.1185,-13.95 19.6264,-37.8414 113.075,-284.145 -319.204,-130.891 -379.794,-206.173z" id="_278413280"/><path class="fil6" d="M715.823 871.398c23.074,87.2682 97.8768,226.5 182.446,285.131 45.7748,19.8414 94.5709,7.47993 139.727,-62.8678 9.51497,-14.824 9.9567,-14.0433 19.7811,-37.7528 31.7244,-76.5627 24.8504,-119.889 -2.98347,-143.867 -94.1363,-37.0465 -272.333,2.24646 -328.509,-31.7693 -4.28386,-2.42835 -7.83071,-5.34213 -10.4622,-8.87481z" id="_278409920"/><path class="fil7" d="M1070.05 1124.14c1.99016,-2.80394 3.96969,-5.7 5.93623,-8.72481 3.04843,-4.69016 5.18032,-7.80827 6.9756,-10.6441l-215.608 -110.718 202.696 130.087z" id="_278404472"/></g></g><path class="fil8" d="M697.932 321.199c235.456,-135.013 535.78,-53.5867 670.791,181.87 135.012,235.456 53.5867,535.778 -181.869,670.791 -235.455,135.012 -535.779,53.5855 -670.792,-181.869 -135.011,-235.456 -53.5855,-535.78 181.87,-670.792zm41.2311 71.9079c195.745,-112.241 445.413,-44.55 557.654,151.193 112.24,195.743 44.5477,445.413 -151.195,557.654 -195.742,112.24 -445.412,44.5477 -557.652,-151.195 -112.241,-195.743 -44.55,-445.412 151.193,-557.652z" id="_278408384"/></g><rect class="fil0" height="2048" width="2048"/></g></svg>