<?xml version="1.0" encoding="utf-8"?>
<!-- Generator: Adobe Illustrator 16.0.0, SVG Export Plug-In . SVG Version: 6.00 Build 0)  -->
<!DOCTYPE svg PUBLIC "-//W3C//DTD SVG 1.1//EN" "http://www.w3.org/Graphics/SVG/1.1/DTD/svg11.dtd">
<svg version="1.1" id="Layer_1" xmlns="http://www.w3.org/2000/svg" xmlns:xlink="http://www.w3.org/1999/xlink" x="0px" y="0px"
	 width="64px" height="64px" viewBox="0 0 64 64" enable-background="new 0 0 64 64" xml:space="preserve">
<g>
	<path fill="#177298" d="M32.029,64C49.602,64,64,49.602,64,32.027C64,14.398,49.602,0,32.029,0C14.398,0,0,14.398,0,32.027
		C0,49.602,14.398,64,32.029,64L32.029,64z"/>
	<polygon fill="#BE3530" points="21.995,6.008 24.318,13.662 31.971,15.984 24.318,18.311 21.995,25.962 19.613,18.311 
		11.961,15.984 19.613,13.662 	"/>
	<path fill="#EABD56" d="M60.768,46.029H3.23c0.681,1.361,1.475,2.721,2.324,3.969h52.889C59.293,48.75,60.088,47.391,60.768,46.029
		L60.768,46.029z M55.212,54.021H8.786c1.417,1.476,2.948,2.834,4.591,3.97h37.244C52.266,56.855,53.854,55.497,55.212,54.021
		L55.212,54.021z"/>
</g>
</svg>
