<?xml version="1.0" encoding="utf-8"?>
<!-- Generator: Adobe Illustrator 16.0.0, SVG Export Plug-In . SVG Version: 6.00 Build 0)  -->
<!DOCTYPE svg PUBLIC "-//W3C//DTD SVG 1.1//EN" "http://www.w3.org/Graphics/SVG/1.1/DTD/svg11.dtd">
<svg version="1.1" id="Layer_1" xmlns="http://www.w3.org/2000/svg" xmlns:xlink="http://www.w3.org/1999/xlink" x="0px" y="0px"
	 width="64px" height="64px" viewBox="0 0 64 64" enable-background="new 0 0 64 64" xml:space="preserve">
<g>
	<path fill="#EABD56" d="M0,32.027C0,49.658,14.341,64,32.029,64C49.658,64,64,49.658,64,32.027C64,14.341,49.658,0,32.029,0
		C14.341,0,0,14.341,0,32.027L0,32.027z"/>
	<path fill="#BE3530" d="M61.676,19.954H2.324C7.085,8.275,18.593,0,32.029,0C45.406,0,56.913,8.275,61.676,19.954L61.676,19.954z"
		/>
	<path fill="#46B59C" d="M2.324,43.988h59.352C56.913,55.725,45.463,64,32.029,64C18.593,64,7.085,55.725,2.324,43.988L2.324,43.988
		z"/>
	<polygon fill="#0F2635" points="32.029,22.051 34.466,29.646 42.457,29.646 35.995,34.354 38.491,41.947 32.029,37.243 
		25.564,41.947 28.003,34.354 21.541,29.646 29.534,29.646 	"/>
</g>
</svg>
