<?xml version="1.0" encoding="utf-8"?>
<!-- Generator: Adobe Illustrator 16.0.0, SVG Export Plug-In . SVG Version: 6.00 Build 0)  -->
<!DOCTYPE svg PUBLIC "-//W3C//DTD SVG 1.1//EN" "http://www.w3.org/Graphics/SVG/1.1/DTD/svg11.dtd">
<svg version="1.1" id="Layer_1" xmlns="http://www.w3.org/2000/svg" xmlns:xlink="http://www.w3.org/1999/xlink" x="0px" y="0px"
	 width="64px" height="64px" viewBox="0 0 64 64" enable-background="new 0 0 64 64" xml:space="preserve">
<g>
	<path fill="#EABD56" d="M32.029,64C49.602,64,64,49.602,64,32.027C64,14.398,49.602,0,32.029,0C14.398,0,0,14.398,0,32.027
		C0,49.602,14.398,64,32.029,64L32.029,64z"/>
	<path fill="#0F2635" d="M6.576,51.415L26.02,32.027L6.576,12.585C2.438,17.971,0,24.716,0,32.027
		C0,39.284,2.438,46.029,6.576,51.415L6.576,51.415z M37.979,32.027l19.443,19.445c4.139-5.387,6.577-12.132,6.577-19.445
		c0-7.368-2.438-14.057-6.577-19.5L37.979,32.027z"/>
	<path fill="#46B59C" d="M31.971,26.02L51.415,6.576C46.029,2.438,39.284,0,32.029,0c-7.37,0-14.059,2.438-19.502,6.576
		L31.971,26.02z M51.415,57.423L31.971,37.98L12.527,57.423C17.971,61.561,24.659,64,32.029,64
		C39.284,64,46.029,61.561,51.415,57.423L51.415,57.423z"/>
</g>
</svg>
