<?xml version="1.0" encoding="utf-8"?>
<!-- Generator: Adobe Illustrator 16.0.0, SVG Export Plug-In . SVG Version: 6.00 Build 0)  -->
<!DOCTYPE svg PUBLIC "-//W3C//DTD SVG 1.1//EN" "http://www.w3.org/Graphics/SVG/1.1/DTD/svg11.dtd">
<svg version="1.1" id="Layer_1" xmlns="http://www.w3.org/2000/svg" xmlns:xlink="http://www.w3.org/1999/xlink" x="0px" y="0px"
	 width="64px" height="64px" viewBox="0 0 64 64" enable-background="new 0 0 64 64" xml:space="preserve">
<g>
	<path fill="#E9E8E9" d="M32.029,64C49.602,64,64,49.602,64,32.027C64,14.398,49.602,0,32.029,0C14.398,0,0,14.398,0,32.027
		C0,49.602,14.398,64,32.029,64L32.029,64z"/>
	<path fill="#BE3530" d="M47.447,60.031H16.552C21.145,62.582,26.416,64,32.029,64C37.641,64,42.913,62.582,47.447,60.031
		L47.447,60.031z M16.552,3.967h30.896C42.913,1.473,37.639,0,32.029,0C26.417,0,21.145,1.475,16.552,3.967L16.552,3.967z
		 M56.971,12.018H7.029c-1.926,2.381-3.514,5.103-4.704,7.993h59.353C60.484,17.119,58.896,14.398,56.971,12.018L56.971,12.018z
		 M63.773,28.003H0.227C0.113,29.307,0,30.668,0,32.027c0,1.304,0.113,2.666,0.227,3.968h63.547c0.113-1.021,0.17-2.099,0.227-3.173
		v-1.588C63.943,30.102,63.887,29.08,63.773,28.003L63.773,28.003z M61.677,43.988H2.324c1.189,2.949,2.777,5.611,4.705,8.05h49.939
		C58.896,49.602,60.484,46.938,61.677,43.988L61.677,43.988z"/>
	<path fill="#177298" d="M31.973,35.995L32.029,0C14.342,0,0,14.341,0,32.027c0,1.304,0.113,2.666,0.227,3.968H31.973z"/>
	<polygon fill="#E9E8E9" points="17.971,9.977 20.464,17.629 28.458,17.572 21.938,22.277 24.434,29.874 17.971,25.169 
		11.508,29.874 14.002,22.277 7.54,17.572 15.532,17.629 	"/>
</g>
</svg>
