<?xml version="1.0" encoding="utf-8"?>
<!-- Generator: Adobe Illustrator 16.0.0, SVG Export Plug-In . SVG Version: 6.00 Build 0)  -->
<!DOCTYPE svg PUBLIC "-//W3C//DTD SVG 1.1//EN" "http://www.w3.org/Graphics/SVG/1.1/DTD/svg11.dtd">
<svg version="1.1" id="Layer_1" xmlns="http://www.w3.org/2000/svg" xmlns:xlink="http://www.w3.org/1999/xlink" x="0px" y="0px"
	 width="64px" height="64px" viewBox="0 0 64 64" enable-background="new 0 0 64 64" xml:space="preserve">
<g>
	<path fill="#46B59C" d="M0,32.027C0,14.341,14.341,0,32.029,0C49.658,0,64,14.341,64,32.027C64,49.658,49.658,64,32.029,64
		C14.341,64,0,49.658,0,32.027L0,32.027z"/>
	<path fill="#BE3530" d="M61.676,44.045H2.324C7.085,55.725,18.593,64,32.029,64C45.406,64,56.913,55.725,61.676,44.045
		L61.676,44.045z"/>
	<path fill="#EABD56" d="M2.324,20.011h59.352C56.913,8.275,45.463,0,32.029,0C18.593,0,7.085,8.275,2.324,20.011L2.324,20.011z"/>
</g>
</svg>
