<?xml version="1.0" encoding="utf-8"?>
<!-- Generator: Adobe Illustrator 18.0.0, SVG Export Plug-In . SVG Version: 6.00 Build 0)  -->
<!DOCTYPE svg PUBLIC "-//W3C//DTD SVG 1.1//EN" "http://www.w3.org/Graphics/SVG/1.1/DTD/svg11.dtd">
<svg version="1.1" id="Layer_1" xmlns="http://www.w3.org/2000/svg" xmlns:xlink="http://www.w3.org/1999/xlink" x="0px" y="0px"
	 viewBox="0 0 64 64" enable-background="new 0 0 64 64" xml:space="preserve">
<g>
	<path fill="#EABD56" d="M32,64c17.6,0,32-14.4,32-32C64,14.4,49.6,0,32,0C14.4,0,0,14.4,0,32C0,49.6,14.4,64,32,64L32,64z"/>
	<path fill="#177298" d="M20,61.7V2.3C8.3,7.1,0,18.6,0,32C0,45.4,8.3,56.9,20,61.7L20,61.7z"/>
	<path fill="#BE3530" d="M44,2.3v59.4C55.7,56.9,64,45.5,64,32C64,18.6,55.7,7.1,44,2.3L44,2.3z"/>
</g>
<polygon fill-rule="evenodd" clip-rule="evenodd" fill="#B07F55" points="30.2,26.5 29.6,26.4 28.5,25.8 27.8,25.7 27.8,24.4 
	26.4,23.3 25.1,24.8 24.9,25.2 24.9,38.8 25.8,37.8 26,37.8 26.9,36.8 27.7,34.8 27.9,34 29,35.2 28.6,36 28.9,36 29,36.3 
	29.3,36.1 29.4,36.6 30.1,35.8 31.1,36.3 29.2,39.8 28.5,40.3 29.8,40.8 31,39.3 30.9,40.3 30.5,41.2 32,42.1 33.7,41.1 32.9,39.4 
	33.1,39.2 34.2,40.8 35.4,40.2 33.9,38.4 32.9,36.2 33.9,35.9 34.7,36.6 34.8,36.1 35.2,36.3 35.1,35.9 35.5,36 35,35.2 36.2,34.2 
	37,36.6 38.1,37.9 38.3,37.9 39.1,38.9 39.1,24.9 37.6,23.3 36.2,24.5 36.2,25.8 35.6,25.8 34.6,26.3 34.1,26.5 33.8,26.5 
	33.5,26.1 33,25.2 33,24.3 33.3,23.8 33.2,23.2 33.5,23.2 33.3,22.8 33.5,22.8 33.2,22.5 33.3,22.3 32.1,21.8 31.1,21.7 30.9,21.8 
	30.8,22.1 31,22.8 30.8,23.1 31,23.6 31,24.7 30.8,25.7 30.4,26.4 "/>
<path fill-rule="evenodd" clip-rule="evenodd" d="M29.9,20.8c-0.1,0-0.3,0-0.3,0.1c0.1,0,0.2,0.1,0.2,0.3v0.3h-0.1h-0.2
	c-0.1,0-0.2-0.1-0.3-0.2c-0.1,0.1-0.1,0.2-0.1,0.3c0,0.1,0,0.3,0.1,0.3c0-0.1,0.1-0.2,0.3-0.2h0.2h0.1v0.1v1v0.4
	c0,0.1-0.1,0.2-0.2,0.3c0.2,0,0.3,0.2,0.3,0.3c0-0.1,0.2-0.3,0.3-0.3c-0.1,0-0.2-0.1-0.2-0.3v-0.7v-0.7v-0.1h0.1h0.2
	c0.1,0,0.2,0.1,0.3,0.2c0.1-0.1,0.1-0.2,0.1-0.3c0-0.1,0-0.3-0.1-0.3c0,0.1-0.1,0.2-0.3,0.2h-0.2h-0.1v-0.3c0-0.1,0.1-0.2,0.2-0.3
	C30.2,20.8,30.1,20.8,29.9,20.8L29.9,20.8z"/>
<path fill-rule="evenodd" clip-rule="evenodd" fill="#F5D402" d="M29.9,20.8c-0.1,0-0.1,0-0.2,0c0.1,0.1,0.1,0.2,0.1,0.3v0.3
	c0,0,0,0,0,0v0.1h-0.1c0,0,0,0,0,0h0h-0.1h-0.2c-0.1,0-0.2,0-0.3-0.1c0,0.1,0,0.1,0,0.2c0,0.1,0,0.1,0,0.2c0.1-0.1,0.2-0.1,0.3-0.1
	h0.2h0h0.1h0.1c0,0,0,0,0,0v0c0,0,0,0,0,0v0.1v1v0.4c0,0.1-0.1,0.2-0.1,0.2c0,0,0.1,0.1,0.1,0.1c0,0,0,0.1,0.1,0.1
	c0,0,0-0.1,0.1-0.1c0,0,0.1-0.1,0.1-0.1c-0.1-0.1-0.1-0.1-0.1-0.2v-0.7v-0.7v0v-0.1v-0.1h0.1c0,0,0,0,0,0h0.1h0.2
	c0.1,0,0.2,0,0.3,0.1c0-0.1,0-0.1,0-0.2c0-0.1,0-0.1,0-0.2c-0.1,0.1-0.2,0.1-0.3,0.1h-0.2h-0.1c0,0,0,0,0,0H30v-0.1c0,0,0,0,0,0
	v-0.3c0-0.1,0-0.2,0.1-0.3C30.1,20.9,30,20.8,29.9,20.8L29.9,20.8L29.9,20.8L29.9,20.8z"/>
<polygon fill-rule="evenodd" clip-rule="evenodd" fill="#D10429" points="28.7,36 27.8,37.4 27.4,37.4 26.9,37.7 26.7,38.2 
	26.8,38.4 27.3,39 27.7,38.7 28.1,38.4 28.1,38 29.3,36.5 29.3,36.1 29,36.3 28.9,36 "/>
<polygon fill-rule="evenodd" clip-rule="evenodd" fill="#D10429" points="34.7,36.4 35.9,38.1 36.1,38.5 36.6,39 36.8,38.9 
	37.4,38.2 37.2,37.7 36.7,37.4 36.3,37.4 35.3,36 35.1,35.9 35.1,36.2 34.8,36.1 "/>
<rect x="27.8" y="38.8" transform="matrix(-0.878 -0.4787 0.4787 -0.878 34.2019 87.0591)" width="0.8" height="0.8"/>
<path fill-rule="evenodd" clip-rule="evenodd" d="M28,38.5l-0.2,0.2L28,39l0.2-0.1L28,38.5L28,38.5L28,38.5z M24.7,31l-0.3,0.1
	l2.8,6.3h0.3L24.7,31L24.7,31L24.7,31L24.7,31z"/>
<rect x="27.9" y="38.9" transform="matrix(-0.878 -0.4787 0.4787 -0.878 34.2018 87.059)" fill="#F5D402" width="0.5" height="0.5"/>
<polygon fill-rule="evenodd" clip-rule="evenodd" fill="#0B45BB" points="27.9,31 27.9,34.3 28.2,34.7 29.7,35.6 31.7,36.5 32,36.8 
	33.7,35.9 35.7,34.9 36.1,34.3 36.1,31 "/>
<path fill-rule="evenodd" clip-rule="evenodd" fill="#D10429" d="M27.9,27.2l0,3.9l0.1,0.2l1.2,0.1l1.3-0.2c0,0,0.7,0.1,1.3,0.2
	c0,0,0,0.1,0,0.1s0.2,0,0.2,0c0.1,0,0.2,0,0.2,0l0-0.1c0.5-0.1,1.3-0.2,1.3-0.2l1.3,0.2l1.2-0.1l0.1-0.2l0-3.9l0.1-0.3l-1.4,0
	l-2.8,0l-2.8,0l-1.4,0C27.7,26.8,27.9,27.2,27.9,27.2z"/>
<polygon fill-rule="evenodd" clip-rule="evenodd" fill="#F5D402" points="33.5,27.3 33.7,27.9 34,28.7 34,29.5 33.7,30.1 33.1,30.3 
	32.8,30.4 32.4,30.2 32,30.4 31.6,30.2 31.2,30.4 31,30.3 30.6,30.2 30.1,29.7 30,28.8 30.6,27.3 29.9,27.8 29.3,28.7 29.3,29.7 
	29.7,30.5 30.5,31 30.7,31 30.3,31.7 31,31.9 31.3,32.2 31.5,32.9 31.4,34.3 31.2,34.7 30.8,35 30.8,35.2 31.3,35.5 31.7,35.9 
	32.3,35.9 32.8,35.5 33.2,35.3 33.1,34.9 32.7,34.5 32.6,33.4 32.7,32.2 33.4,31.8 33.7,31.7 33.4,31 33.9,30.8 34.5,30.2 
	34.8,29.1 34.7,28.5 34.2,27.9 "/>
<polygon fill-rule="evenodd" clip-rule="evenodd" fill="#F5D402" points="28.2,31.2 28.9,31 29.3,30.6 29.6,30.9 30.2,31.2 
	29.7,31.5 29.3,31.9 28.9,31.6 "/>
<polygon fill-rule="evenodd" clip-rule="evenodd" fill="#F5D402" points="34.7,30.6 34.4,30.9 33.8,31.2 34.4,31.6 34.8,31.9 
	35.2,31.6 35.8,31.2 35.2,31 "/>
<polygon fill-rule="evenodd" clip-rule="evenodd" fill="#F5D402" points="32,27.4 31.8,28 31.3,27.7 31.5,28.3 31,28.5 31.5,28.7 
	31.3,29.3 31.8,29 32,29.6 32.2,29 32.8,29.2 32.5,28.7 33.1,28.5 32.5,28.3 32.8,27.7 32.2,28 "/>
<polygon fill-rule="evenodd" clip-rule="evenodd" fill="#F5D402" points="30.9,32.2 31.1,32.5 30.9,32.7 30.6,32.5 "/>
<polygon fill-rule="evenodd" clip-rule="evenodd" fill="#F5D402" points="33.2,32.2 32.9,32.5 33.2,32.7 33.5,32.5 "/>
<polygon fill-rule="evenodd" clip-rule="evenodd" fill="#F5D402" points="33.4,32.9 32.9,33 32.8,33.3 32.8,34.1 33,34.5 33.2,34.7 
	33.2,33.6 "/>
<polygon fill-rule="evenodd" clip-rule="evenodd" fill="#F5D402" points="30.7,32.9 30.8,33.8 30.8,34.6 31.1,34.5 31.2,34.1 
	31.3,33.4 31.1,33 "/>
<polygon fill-rule="evenodd" clip-rule="evenodd" fill="#F5D402" points="35.1,33.6 34.5,33.3 34,33.5 33.7,33.8 33.7,34.3 
	34.1,34.8 34.2,34.8 34.2,34.3 34.6,33.7 "/>
<polygon fill-rule="evenodd" clip-rule="evenodd" fill="#F5D402" points="29.8,33.4 29.7,33.2 29.4,33 29.2,33.1 29,33.4 29.1,33.6 
	28.8,33.6 28.6,33.8 28.6,34.1 28.7,34.2 28.9,34.3 29.1,34.3 29,34.5 29,34.8 29.3,34.9 29.6,34.9 29.7,34.6 29.9,34.7 30.2,34.7 
	30.4,34.4 30.3,34.1 30.1,34 30.3,33.9 30.4,33.6 30.1,33.3 29.9,33.3 "/>
<path fill-rule="evenodd" clip-rule="evenodd" d="M32.6,35c-0.1,0-0.2,0-0.2,0.1c0,0.1,0.1,0.1,0.2,0.1c0.3,0,0.5-0.1,0.5-0.1
	S32.9,35,32.6,35z M31.5,35c-0.3,0-0.5,0.1-0.5,0.1c0,0.1,0.2,0.1,0.5,0.1c0.1,0,0.2,0,0.2-0.1S31.6,35,31.5,35z M29.2,34.3
	c0.1,0.1,0.2,0.2,0.4,0.2c0,0,0.1,0,0.1,0c0,0,0,0.1,0,0.1c0,0,0,0.1,0,0.1c-0.1,0.2-0.2,0.2-0.4,0.2c-0.2-0.1-0.2-0.3-0.2-0.4
	C29.1,34.4,29.1,34.3,29.2,34.3C29.1,34.3,29.1,34.3,29.2,34.3L29.2,34.3L29.2,34.3L29.2,34.3z M30,34C30,34,30.1,34.1,30,34
	c0.1,0,0.1,0,0.2,0.1c0.1,0.1,0.1,0.3,0,0.4c-0.1,0.1-0.3,0.2-0.4,0c0,0,0-0.1-0.1-0.1c0,0,0,0,0-0.1C29.9,34.4,30,34.2,30,34L30,34
	L30,34z M29.6,33.7c0.2,0,0.3,0.1,0.3,0.3c0,0.2-0.1,0.3-0.3,0.3c-0.2,0-0.3-0.1-0.3-0.3C29.2,33.8,29.4,33.7,29.6,33.7
	C29.6,33.7,29.4,33.7,29.6,33.7z M29,33.6c0,0,0.1,0,0.1,0c0,0,0,0,0.1,0c-0.1,0.1-0.1,0.2-0.1,0.3c0,0.1,0,0.2,0.1,0.2
	c0,0-0.1,0-0.1,0c0,0-0.1,0-0.1,0c-0.2,0-0.3-0.2-0.3-0.3C28.7,33.8,28.8,33.6,29,33.6C29,33.6,28.8,33.6,29,33.6L29,33.6z
	 M34.4,33.5c0.2,0,0.3,0.1,0.5,0.1c-0.5,0.1-0.9,0.6-0.8,1.1c-0.2-0.1-0.3-0.3-0.3-0.5C33.7,33.8,34,33.5,34.4,33.5L34.4,33.5
	L34.4,33.5z M30,33.4c0.1,0,0.2,0.1,0.3,0.1c0.1,0.1,0,0.3-0.1,0.4c0,0-0.1,0-0.1,0c0,0-0.1,0-0.1,0c0,0,0,0,0,0
	c0-0.2-0.1-0.4-0.3-0.4c0,0,0-0.1,0-0.1c0,0,0,0,0.1-0.1C29.9,33.4,30,33.4,30,33.4L30,33.4L30,33.4z M34.4,33.3
	c-0.5,0-0.9,0.4-0.8,0.9c0,0.4,0.4,0.8,0.8,0.9c-0.1-0.1-0.1-0.2-0.1-0.4c-0.1-0.5,0.3-0.9,0.8-0.9c0.1,0,0.2,0,0.2,0
	C35.2,33.5,34.8,33.3,34.4,33.3L34.4,33.3L34.4,33.3L34.4,33.3L34.4,33.3z M29.4,33.1c0.1,0,0.3,0.1,0.3,0.2c0,0,0,0.1,0,0.1
	c0,0,0,0.1,0,0.1c0,0-0.1,0-0.2,0c-0.1,0-0.3,0.1-0.3,0.2c0,0,0,0-0.1-0.1c0,0,0-0.1,0-0.1C29.1,33.4,29.2,33.2,29.4,33.1
	C29.4,33.1,29.4,33.1,29.4,33.1L29.4,33.1L29.4,33.1L29.4,33.1z M33.3,33c-0.1,0.3-0.1,0.5-0.1,1.5c0,0-0.3-0.2-0.3-0.5
	c0-0.4,0-0.7,0.1-0.8L33.3,33L33.3,33z M30.8,33l0.3,0.1c0.1,0.2,0.1,0.5,0.1,0.8c0,0.4-0.3,0.5-0.3,0.5
	C30.9,33.5,30.8,33.3,30.8,33L30.8,33L30.8,33z M29.4,33C29.4,33,29.3,33,29.4,33c-0.3,0.1-0.4,0.3-0.4,0.5c0,0,0,0.1,0,0.1
	c0,0-0.1,0-0.1,0c0,0,0,0,0,0c-0.2,0-0.4,0.2-0.4,0.4c0,0.2,0.2,0.4,0.4,0.4c0,0,0.1,0,0.1,0c0,0,0,0.1,0,0.1
	c-0.1,0.2,0,0.5,0.2,0.5c0.2,0.1,0.4,0,0.5-0.2c0,0,0-0.1,0-0.1c0,0,0,0.1,0.1,0.1c0.2,0.1,0.4,0.1,0.6-0.1c0.1-0.2,0.1-0.4-0.1-0.6
	c0,0-0.1,0-0.1-0.1c0,0,0.1,0,0.1,0c0.2-0.1,0.2-0.4,0.1-0.6c-0.1-0.1-0.2-0.2-0.4-0.2c-0.1,0-0.1,0-0.2,0.1c0,0-0.1,0-0.1,0.1
	c0,0,0-0.1,0-0.1C29.7,33.1,29.6,33,29.4,33L29.4,33L29.4,33L29.4,33z M33.5,32.8l-0.6,0.1c-0.2,0.1-0.2,1-0.1,1.2
	c0.1,0.5,0.6,0.6,0.6,0.6s0-0.2,0-0.7C33.3,33.5,33.4,33,33.5,32.8L33.5,32.8L33.5,32.8z M30.5,32.8c0.1,0.2,0.2,0.7,0.2,1.3
	c0,0.4,0,0.7,0,0.7s0.5-0.1,0.6-0.6c0-0.2,0.1-1.1-0.1-1.2L30.5,32.8L30.5,32.8z M33.2,32.3l0.2,0.2l-0.2,0.2L33,32.5L33.2,32.3z
	 M30.9,32.3l0.2,0.2l-0.2,0.2l-0.2-0.2L30.9,32.3z M33.2,32.1l-0.3,0.3l0.3,0.3l0.3-0.3L33.2,32.1z M30.9,32.1l-0.3,0.3l0.3,0.3
	l0.3-0.3L30.9,32.1z M34.8,30.7c0.3,0.3,0.8,0.5,0.8,0.5s-0.5,0.3-0.8,0.5c0,0,0,0,0,0c0,0,0,0,0,0c0,0,0,0,0,0c0,0,0,0,0,0
	c-0.3-0.3-0.7-0.6-0.7-0.6S34.5,31.1,34.8,30.7C34.8,30.7,34.5,31.1,34.8,30.7L34.8,30.7z M29.3,30.7c0.3,0.3,0.7,0.5,0.7,0.5
	c0,0-0.5,0.3-0.7,0.6v0c0,0,0,0,0,0c0,0,0,0,0,0v0c-0.3-0.2-0.8-0.5-0.8-0.5S29,31.1,29.3,30.7L29.3,30.7L29.3,30.7z M32,27.7
	l0.2,0.5l0.4-0.2l-0.2,0.4l0.4,0.2l-0.4,0.2l0.2,0.4l-0.4-0.2L32,29.4l-0.2-0.5l-0.4,0.2l0.2-0.4l-0.4-0.2l0.4-0.2l-0.2-0.4l0.4,0.2
	L32,27.7z M29.9,29.1c0,0.8,0.4,1.3,1,1.3c0.1,0,0.2,0.1,0.3,0.1c0.2,0,0.3-0.2,0.4-0.2c0.1,0,0.2,0.2,0.4,0.2
	c0.2,0,0.3-0.2,0.4-0.2c0.1,0,0.2,0.2,0.4,0.2c0.1,0,0.2-0.1,0.3-0.1c0.6,0,1-0.5,1-1.3c0-0.6-0.5-1.4-0.5-1.6c0,0,1,0.8,1,1.6
	c0,1.4-1,1.5-1.4,1.8l0.3,0.7L32.8,32c0,0-0.4,1.1-0.4,1.6c0,0.6,0,0.9,0.3,1.1c0.2,0.2,0.4,0.2,0.4,0.4c0,0.2-0.2,0.2-0.4,0.3
	c-0.3,0.1-0.3,0.3-0.7,0.3c-0.4,0-0.4-0.2-0.7-0.3c-0.2-0.1-0.4-0.2-0.4-0.3c0-0.2,0.2-0.2,0.4-0.4c0.2-0.2,0.3-0.4,0.3-1.1
	c0-0.5,0-1.3-0.4-1.6c-0.3-0.2-0.7-0.3-0.7-0.3l0.3-0.7c-1.4-0.6-1.4-1-1.4-1.8c-0.1-0.8,1-1.6,1-1.6C30.5,27.7,29.9,28.4,29.9,29.1
	z M32,27.2l-0.2,0.7l-0.7-0.3l0.3,0.7l-0.7,0.3l0.7,0.3l-0.3,0.7l0.7-0.3l0.2,0.7l0.2-0.7l0.7,0.3l-0.3-0.7l0.7-0.3l-0.7-0.3
	l0.3-0.7l-0.7,0.3L32,27.2z M29.3,30.5c-0.6,0.5-1.3,0.7-1.3,0.7s0.7,0.3,1.3,0.7c0.3-0.4,1.2-0.8,1.2-0.8
	C29.9,30.9,29.6,31,29.3,30.5z M34.7,32c0.5-0.4,1.3-0.7,1.3-0.7s-0.7-0.2-1.3-0.7c-0.3,0.4-1.2,0.7-1.2,0.7
	C33.9,31.3,34.5,31.6,34.7,32z M29.1,29.2c0,1.5,1.4,1.9,1.4,1.9l-0.1,0.1l-0.3,0.6l0.9,0.3c0,0,0.3,1,0.3,1.5c0,0.4,0,0.8-0.2,1
	c-0.3,0.2-0.4,0.2-0.4,0.5c0,0.2,0.2,0.3,0.4,0.4c0.4,0.2,0.3,0.4,0.9,0.4c0.5,0,0.5-0.3,0.9-0.4c0.3-0.1,0.4-0.2,0.4-0.4
	c0-0.3-0.2-0.3-0.4-0.5c-0.2-0.2-0.2-0.6-0.2-1c0-0.5,0-1.2,0.3-1.5c0.3-0.3,0.9-0.3,0.9-0.3l-0.3-0.6l-0.1-0.1
	c0.9-0.4,1.4-1.1,1.4-1.9c0-1-1.4-1.8-1.5-2.1c-0.1,0.5,0.5,1.2,0.5,2c0,1-0.8,1.1-0.8,1.1c-0.2,0-0.3,0.1-0.3,0.1
	c-0.2,0-0.2-0.2-0.4-0.2c-0.1,0-0.2,0.2-0.4,0.2c-0.2,0-0.3-0.2-0.4-0.2c-0.1,0-0.2,0.2-0.4,0.2c-0.1,0-0.1-0.1-0.3-0.1
	c0,0-0.8-0.1-0.8-1.1c0-0.8,0.6-1.5,0.5-2C30.6,27.4,29.1,28,29.1,29.2z"/>
<path fill-rule="evenodd" clip-rule="evenodd" d="M36.1,38.9c0,0,0,0.1,0,0.1c0,0-0.2,0-0.2,0c0,0,0,0.8,0,0.8s0.6-0.4,0.6-0.4
	c0-0.1-0.1-0.2-0.1-0.2c0,0,0.1,0,0.1-0.1c0,0,0-0.2-0.1-0.2c-0.1,0-0.1,0-0.1,0C36.1,38.8,36.1,38.8,36.1,38.9z M40.3,30.3
	L40.3,30.3c0,0.1-0.1,0.2-0.1,0.2s0-0.1,0,0c0,0.1,0,0.2,0,0.2s-0.5,0-0.5,0c-0.1,0,0,0.4,0,0.6c-0.1,0.4-0.2,0.4-0.2,0.4
	c0,0.1,0.1,0.2,0.1,0.2s-0.1,0-0.1,0.1c0,0.1,0,0.2,0,0.2c-0.2,0.4-0.5,1-0.7,1.4c0,0.1-0.1,0.1-0.1,0.1c0,0.1,0,0.2,0,0.2
	s-0.1,0-0.2,0.1c0,0.1,0,0.2,0,0.2s-0.1,0-0.1,0.1c0,0.1,0,0.1,0,0.2c-0.3,0.5-0.6,1.1-0.8,1.5c-0.1,0.1-0.3,0.2-0.5,0.5
	c-0.1,0.3,0.1,0.5,0.1,0.5s-0.2,0-0.3,0.1c-0.1,0.1,0,0.3,0.1,0.4c0.1,0.1,0.3,0,0.4-0.1c0.1-0.1-0.1-0.3-0.1-0.3s0.3,0,0.4-0.2
	c0.1-0.3,0-0.5,0.1-0.6c0.2-0.4,0.5-1,0.8-1.5c0,0,0.1,0,0.1-0.1c0-0.1,0-0.2,0-0.2s0.1-0.1,0.2-0.1c0-0.1,0-0.2,0-0.2
	s0.1,0,0.1-0.1c0-0.1,0-0.1,0-0.2c0.2-0.4,0.5-1,0.7-1.4c0-0.1,0.2-0.1,0.2-0.2c0,0,0-0.1,0-0.1s0.1,0,0.2-0.1
	c0.1,0-0.1-0.2,0.2-0.4c0.2-0.2,0.5-0.3,0.5-0.4c0-0.1-0.3-0.4-0.3-0.4s0.1,0,0.2-0.1c0-0.1,0-0.2,0-0.2l0.1,0V30L40.3,30.3z"/>
<path fill-rule="evenodd" clip-rule="evenodd" d="M36.4,38.4C36.4,38.4,36.4,38.4,36.4,38.4l0.4,0.3c0,0,0,0.1,0,0.1
	c0,0-0.1,0-0.1,0l-0.3-0.3C36.3,38.6,36.3,38.5,36.4,38.4C36.3,38.4,36.4,38.4,36.4,38.4C36.4,38.4,36.4,38.4,36.4,38.4z M27.6,38.4
	C27.7,38.4,27.7,38.4,27.6,38.4c0.1,0.1,0.1,0.1,0.1,0.2l-0.3,0.3c0,0-0.1,0-0.1,0c0,0,0-0.1,0-0.1L27.6,38.4
	C27.6,38.4,27.6,38.4,27.6,38.4C27.6,38.4,27.6,38.4,27.6,38.4L27.6,38.4z M36.6,38.2C36.6,38.2,36.6,38.2,36.6,38.2
	C36.6,38.2,36.6,38.2,36.6,38.2l0.4,0.3c0,0,0,0.1,0,0.1c0,0-0.1,0-0.1,0l-0.3-0.3C36.5,38.4,36.5,38.3,36.6,38.2
	C36.5,38.2,36.6,38.2,36.6,38.2L36.6,38.2L36.6,38.2z M27.4,38.2C27.5,38.2,27.5,38.2,27.4,38.2c0.1,0.1,0.1,0.1,0.1,0.2l-0.3,0.3
	c0,0-0.1,0-0.1,0c0,0,0-0.1,0-0.1L27.4,38.2C27.4,38.2,27.4,38.2,27.4,38.2L27.4,38.2L27.4,38.2z M36.7,38C36.8,38,36.8,38,36.7,38
	C36.8,38,36.8,38,36.7,38l0.4,0.3c0,0,0,0.1,0,0.1c0,0-0.1,0-0.1,0l-0.3-0.3C36.7,38.2,36.7,38.1,36.7,38C36.7,38,36.7,38,36.7,38
	L36.7,38L36.7,38z M27.3,38C27.3,38,27.3,38,27.3,38c0.1,0.1,0.1,0.1,0.1,0.2l-0.3,0.3c0,0-0.1,0-0.1,0c0,0,0-0.1,0-0.1L27.3,38
	C27.2,38,27.3,38,27.3,38C27.3,38,27.3,38,27.3,38L27.3,38z M36.9,37.9C36.9,37.9,36.9,37.9,36.9,37.9l0.2,0.1c0,0,0,0,0,0.1
	c0,0,0,0-0.1,0L36.9,37.9C36.9,38,36.9,37.9,36.9,37.9C36.9,37.9,36.9,37.9,36.9,37.9L36.9,37.9L36.9,37.9L36.9,37.9z M27.1,37.9
	C27.2,37.9,27.2,37.9,27.1,37.9C27.2,37.9,27.2,38,27.1,37.9L27,38.1c0,0,0,0-0.1,0c0,0,0,0,0-0.1L27.1,37.9
	C27.1,37.9,27.1,37.9,27.1,37.9L27.1,37.9L27.1,37.9z M28.2,40.2c0,0,0.6,0.2,1.3,0.6c0.1,0.1,0.2,0.1,0.3,0.2
	c0.1-0.1,0.2-0.2,0.3-0.4c0.4-0.6,0.8-1.2,0.8-1.2c0,0.2-0.2,0.7-0.6,1.4c-0.1,0.1-0.2,0.3-0.2,0.4c0.1,0.1,0.2,0.1,0.3,0.2
	c0.7,0.4,1.4,0.9,1.6,1.4c0.2-0.5,0.9-0.9,1.6-1.4c0.1-0.1,0.2-0.1,0.3-0.2c-0.1-0.1-0.2-0.3-0.2-0.4c-0.4-0.7-0.6-1.2-0.6-1.4
	c0,0,0.4,0.7,0.8,1.2c0.1,0.1,0.2,0.2,0.3,0.4c0.1-0.1,0.2-0.1,0.3-0.2c0.7-0.4,1.3-0.6,1.3-0.6c-1.3-0.5-2.8-4-2.8-4l-0.2,0.1
	c0,0,1.2,3,2.4,3.9c-0.3,0.1-0.6,0.2-0.9,0.3c-0.4-0.5-0.8-1.1-1.1-1.6c-0.4-0.6-0.6-1.6-0.6-1.6c-0.2,0.4,0.2,2.4,0.9,3.7
	c-0.6,0.3-1.1,0.6-1.3,0.9c-0.2-0.3-0.8-0.6-1.3-0.9c0.7-1.3,1.1-3.3,0.9-3.7c0,0-0.3,1-0.6,1.6c-0.3,0.6-0.7,1.2-1.1,1.6
	c-0.3-0.1-0.6-0.3-0.9-0.3c1.2-0.9,2.4-3.9,2.4-3.9L31,36.2C29.9,39.2,28.2,40.2,28.2,40.2z M35.2,36.1
	C35.2,36.1,35.2,36.1,35.2,36.1c0.1,0.1,0.6,0.9,1,1.4c0.1,0.1,0.5,0,0.5,0c0.2,0,0.5,0.3,0.5,0.3c0,0,0,0.1-0.1,0.1
	c-0.1,0-0.1-0.1-0.4-0.2c-0.2-0.1-0.4,0-0.6-0.1c0,0.2,0.3,0.3,0.3,0.4c-0.2,0-0.2-0.1-0.2-0.1s0,0.1,0,0.2c0,0.1-0.1,0.2-0.1,0.2
	S36,38.1,35.9,38c-0.3-0.5-1-1.4-1.1-1.5c0-0.1,0-0.2,0-0.2l0.3,0.2C35.2,36.3,35.2,36.1,35.2,36.1L35.2,36.1L35.2,36.1L35.2,36.1z
	 M28.9,36.4l0.3-0.2l0,0.2c0,0-0.8,1.1-1.1,1.5C28,38.1,28,38.4,28,38.4s-0.1-0.1-0.1-0.2c0-0.1,0-0.2,0-0.2s-0.1,0.1-0.2,0.1
	c0-0.1,0.2-0.3,0.3-0.4c-0.2,0.1-0.3,0.1-0.6,0.1c-0.2,0.1-0.3,0.2-0.4,0.2c0,0-0.1-0.1-0.1-0.1c0-0.1,0.3-0.3,0.5-0.3
	c0,0,0.4,0.1,0.5,0c0.3-0.5,0.8-1.3,0.9-1.4c0,0,0.1,0,0.1,0L28.9,36.4z M35,35.3c0,0,0.2,0.5,0.4,0.6c0,0-0.2,0-0.3-0.1
	c0,0.1-0.1,0.3-0.1,0.3c-0.1,0-0.3-0.1-0.3-0.1c0,0.1-0.1,0.4-0.1,0.4c-0.1-0.1-0.6-0.6-0.6-0.6l-0.2,0.1c0,0,0.8,0.6,0.9,0.9
	c0-0.1,0-0.1,0-0.1c0.1,0.2,0.8,1,1.1,1.4c0.1,0.1,0.1,0.3,0.2,0.4c0.2,0.2,0.3,0.3,0.5,0.5c0.1,0.1,0.3,0,0.3,0
	c0.1-0.1,0.4-0.6,0.4-0.6s0,0,0,0.1c0,0,0.1-0.2,0.1-0.3c0-0.1-0.1-0.3-0.1-0.4c-0.1-0.1-0.5-0.4-0.7-0.4c-0.2,0-0.3,0.1-0.5-0.1
	c-0.2-0.3-0.7-1-0.7-1.1c0.1,0,0.2,0,0.2,0c-0.1-0.1-0.5-0.9-0.5-0.9L35,35.3z M28.4,36.1c0,0,0.1,0,0.2,0c-0.1,0.1-0.6,0.8-0.7,1.1
	c-0.1,0.3-0.3,0.1-0.5,0.1c-0.2,0-0.6,0.3-0.7,0.4c-0.1,0.1-0.1,0.3-0.1,0.4c0,0.1,0.1,0.3,0.1,0.3c0-0.1,0-0.1,0-0.1
	s0.4,0.5,0.4,0.6c0,0,0.2,0.1,0.3,0c0.2-0.2,0.3-0.3,0.5-0.5c0.1-0.1,0.1-0.3,0.2-0.4c0.3-0.4,0.9-1.3,1.1-1.4c0,0.1,0,0.1,0,0.1
	c0.2-0.3,0.9-0.9,0.9-0.9L30,35.7l-0.6,0.6c0,0-0.1-0.3-0.1-0.4c0,0-0.2,0.1-0.3,0.1c0,0,0-0.2-0.1-0.3c-0.1,0.1-0.3,0.1-0.3,0.1
	l0.4-0.6l-0.1-0.1L28.4,36.1z M38.2,27.5l0.4,0.4l0.4-0.4v10.9c-0.2-0.1-0.7-0.8-0.7-1.1V27.5L38.2,27.5z M25.8,27.5v9.9
	c0,0.3-0.5,0.9-0.7,1.1V27.5l0.4,0.4L25.8,27.5L25.8,27.5z M38,37.7c0,0-0.6-0.8-0.7-1.5v-8.7l0.4,0.4l0.4-0.4L38,37.7z M26.4,27.8
	l0.4-0.4v8.7c0,0,0,0.4,0,0.7C26.7,37,26,37.7,26,37.7V27.5L26.4,27.8z M38.5,26.3v1l-0.2-0.2L38.2,27v-0.4l0.2-0.1L38.5,26.3
	L38.5,26.3z M37.7,26.3l0.2,0.2l0.2,0.1V27l-0.2,0.1l-0.2,0.2V26.3L37.7,26.3L37.7,26.3z M37.6,26.3v1l-0.2-0.2L37.2,27v-0.4
	L37.6,26.3L37.6,26.3L37.6,26.3z M36.7,26.3c0.1,0.1,0.2,0.3,0.4,0.4V27l-0.2,0.1l-0.2,0.2V26.3L36.7,26.3L36.7,26.3z M27.3,26.3v1
	l-0.2-0.2L27,27v-0.4C27.1,26.6,27.2,26.5,27.3,26.3L27.3,26.3L27.3,26.3L27.3,26.3z M26.5,26.3l0.4,0.3V27l-0.2,0.1l-0.2,0.2V26.3
	L26.5,26.3z M26.3,26.3v1l-0.2-0.2L26,27v-0.4l0.2-0.1L26.3,26.3L26.3,26.3z M25.5,26.3l0.2,0.2l0.2,0.1V27l-0.2,0.1l-0.2,0.2V26.3
	L25.5,26.3L25.5,26.3z M38.7,26.3l0.3,0.3v0.5l-0.3,0.3V26.3L38.7,26.3z M25.4,26.3v1.1l-0.3-0.3v-0.5L25.4,26.3L25.4,26.3z
	 M37.2,25.2l0.4,0.3v0.4l-0.4,0.3V25.2L37.2,25.2z M26.8,25.2v1.1l-0.4-0.3v-0.4L26.8,25.2L26.8,25.2z M37.1,25.1v1.1
	c-0.2-0.1-0.4-0.4-0.5-0.5C36.8,25.6,37,25.2,37.1,25.1C37.1,25.1,37,25.2,37.1,25.1z M27,25.1c0.1,0.1,0.3,0.5,0.5,0.6
	c-0.1,0.1-0.3,0.4-0.5,0.5V25.1z M38.2,25l0.4,0.4v0.5l-0.4,0.3V25L38.2,25L38.2,25z M25.9,25v1.2l-0.4-0.3v-0.5L25.9,25L25.9,25
	L25.9,25z M38.1,24.9v1.3l-0.4-0.3v-0.4L38.1,24.9L38.1,24.9L38.1,24.9z M26,24.9l0.4,0.5v0.4L26,26.2V24.9L26,24.9L26,24.9z
	 M38.9,24.9c0.1,0.1,0.1,0.2,0.1,0.3v1l-0.3-0.3v-0.7L38.9,24.9L38.9,24.9z M25.2,24.9l0.2,0.4v0.7l-0.3,0.3v-1
	C25.1,25.1,25.1,25,25.2,24.9C25.2,24.9,25.1,25,25.2,24.9L25.2,24.9z M38.7,24.6c0,0.1-0.2,0.5-0.2,0.5s-0.3-0.4-0.4-0.5v-0.1
	c0-0.1-0.1-0.2-0.1-0.3l-0.1,0c0.1,0.1,0.1,0.2,0.1,0.3v0.1l-0.4,0.6l-0.3-0.4l0,0l0,0v-0.1c0-0.1-0.1-0.2-0.1-0.3l-0.1,0
	c0,0,0.1,0.1,0.1,0.2v0.1c-0.1,0.2-0.4,0.5-0.6,0.6c0,0,0-0.7,0-0.8s0-0.3,0-0.3l1.2-0.9C38,23.8,38.4,24.2,38.7,24.6z M27.6,24.4
	l0,0.3v0.8c-0.2-0.1-0.5-0.4-0.6-0.6v-0.1c0-0.1,0.1-0.2,0.1-0.2l-0.1,0c0,0.1-0.1,0.1-0.1,0.3v0.1l0,0l0,0l-0.3,0.4l-0.4-0.6v-0.1
	c0-0.1,0.1-0.2,0.1-0.3l-0.1,0c-0.1,0.1-0.1,0.2-0.1,0.3v0.1c-0.1,0.1-0.4,0.5-0.4,0.5l-0.2-0.5c0.3-0.4,0.7-0.8,1.1-1.1L27.6,24.4z
	 M31.6,21.8c0.5,0,0.8,0.2,1.3,0.4c0.1,0.1,0.2,0.1,0.3,0.1c-0.1,0.1-0.1,0.1-0.1,0.2c0,0,0.2,0,0.3,0.2c0,0-0.2,0-0.2,0.1
	c0.1,0,0.2,0.2,0.2,0.3l-0.3-0.1l0.1,0.7c0,0-0.3,0.4-0.3,0.7c0,0.9,0.2,1.3,0.4,1.6c0.1,0.1,0.1,0.2,0.2,0.3
	c-0.5-0.3-0.8-0.6-0.8-0.9v-1.1h-0.1v1.1c0,0.2,0.1,0.3,0.1,0.3c0.1,0.2,0.2,0.6,0.3,0.8c-0.4-0.2-0.7-0.5-0.7-0.7v-1.6h-0.1V26
	l0,0.1c-0.1,0.1-0.1,0.2-0.2,0.2c0,0-0.1-0.1-0.2-0.2l0-0.1v-1.6h-0.1v1.6c0,0.1-0.2,0.4-0.7,0.7c0.1-0.2,0.2-0.5,0.3-0.8
	c0,0,0.1-0.1,0.1-0.3v-1.1h-0.1v1.1c0,0.3-0.4,0.6-0.8,0.9c0.1-0.1,0.2-0.2,0.2-0.3c0.2-0.3,0.4-0.7,0.4-1.9c0-0.4-0.1-0.7-0.2-0.9
	c0-0.1-0.1-0.2,0.2-0.2c0.1,0,0.4,0.2,0.4,0.2s0-0.2-0.2-0.3c0,0-0.1-0.1-0.1-0.1c0,0,0.1-0.1,0.1-0.2c0,0-0.5-0.1-0.5-0.4
	c0-0.1,0-0.1,0.1-0.1c0.2,0,0.4,0.2,0.6,0.2c0.2,0,0.2,0,0.4,0c0.2,0,0.6,0.4,0.8,0.4c-0.2-0.1-0.4-0.5-0.8-0.5c-0.1,0-0.3,0-0.4,0
	c-0.2,0-0.3-0.2-0.5-0.2c-0.1,0-0.3,0-0.3,0c0-0.1,0-0.1,0-0.1c0.1-0.1,0.2-0.1,0.4-0.1c0.1,0,0.1,0,0.1,0
	C31.5,21.8,31.5,21.8,31.6,21.8z M30.9,21.8c-0.1,0.1-0.1,0.2-0.2,0.2c-0.1,0.1-0.3,0.1-0.4,0.1c-0.5,0-0.6,0.6-0.6,0.6
	s0.1-0.2,0.4-0.2c0.4,0,0.7,0.2,0.7,0.3c0,0,0,0,0,0c-0.3,0-0.7-0.2-0.9-0.2v0.1c0.5,0.2,0.9,0.4,0.9,1.5c0,0.7-0.1,1.3-0.4,1.8
	c-0.1,0.2-0.3,0.3-0.5,0.5c-0.1,0-0.5-0.2-0.8-0.3c-0.5-0.3-0.8-0.6-1.4-0.6v-0.5c0-0.2,0.1-0.5,0.1-0.7c-0.3-0.1-1-0.9-1.6-1.3
	c-1,0.6-1.7,1.7-1.7,2.1c0,0,0,10.1,0,13.7c0,0.2-0.1,0.5-0.1,0.5c0.3-0.1,1-1,1.1-1.4v0.2c0.5-0.2,0.9-0.9,1.1-1.2c0,0,0,0.2,0,0.2
	c0.5-0.4,1.1-2.9,1.1-2.9l0-0.5c-0.4,0.9-0.4,2-0.9,2.4v-8.7l0.4,0.4l0.6-0.5v-0.4l-0.5,0.5v-1.2c0.1-0.1,0.1-0.2,0.2-0.3
	c0.1,0.1,0.3,0.6,0.7,0.9c0.1-0.2,0.4-0.4,0.4-0.4s0.1,0.3,0.3,0.4c0.1-0.1,0.4-0.4,0.4-0.4s-0.3,0.1-0.5,0.2
	c-0.1,0-0.1-0.5-0.1-0.5s-0.5,0.2-0.6,0.4c-0.1,0-0.2-0.4-0.3-0.5c0.1,0,0.2,0,0.4,0c0.1,0,0.3,0.1,0.5,0.2c0.2,0.1,0.4,0.2,0.6,0.3
	c0.2,0.1,0.6,0.1,0.7,0.1c-0.1,0.1-0.3,0.2-0.4,0.2c0,0,0.6,0,1-0.2c0.1-0.1,0.3-0.2,0.4-0.3c-0.1,0.2-0.1,0.3-0.3,0.5
	c0.6-0.1,0.9-0.4,1-0.5c0,0.1,0.1,0.3,0.2,0.4c0.1-0.1,0.2-0.3,0.2-0.4c0.1,0.1,0.4,0.5,1,0.5c-0.1-0.2-0.2-0.3-0.3-0.5
	c0.1,0.1,0.3,0.2,0.4,0.3c0.4,0.2,1,0.2,1,0.2c-0.1-0.1-0.3-0.2-0.4-0.2c0.1,0,0.5,0,0.7-0.1c0.2-0.1,0.4-0.2,0.6-0.3
	c0.2-0.1,0.4-0.2,0.5-0.2c0.2,0,0.3,0,0.4,0c-0.1,0.2-0.2,0.5-0.3,0.5c-0.1-0.2-0.6-0.4-0.6-0.4s0,0.5-0.1,0.5
	c-0.1-0.1-0.5-0.2-0.5-0.2s0.4,0.3,0.4,0.4c0.2-0.1,0.3-0.4,0.3-0.4s0.3,0.2,0.4,0.4c0.3-0.3,0.6-0.7,0.7-0.9c0,0.1,0.1,0.2,0.2,0.3
	v1.2l-0.5-0.5v0.4l0.6,0.5l0.4-0.4v8.7c-0.5-0.4-0.9-2.4-0.9-2.4S36,33.1,36,34.2c0,1.1,0.7,2.5,1.2,2.9c0,0,0-0.1,0-0.2
	c0.2,0.3,0.6,1,1.1,1.2V38c0.1,0.3,0.8,1.2,1.1,1.4c0,0-0.1-0.3-0.1-0.5c0-3.5,0-13.7,0-13.7c0-0.5-0.7-1.5-1.7-2.1
	c-0.6,0.4-1.4,1.3-1.6,1.3c0,0.2,0.1,0.5,0.1,0.7v0.5c-0.6,0-0.9,0.3-1.4,0.6c-0.3,0.2-0.7,0.3-0.8,0.3c-0.2-0.1-0.4-0.3-0.5-0.5
	c-0.3-0.4-0.4-1-0.4-1.5c0-0.2,0.3-0.5,0.3-0.7c0-0.3,0-0.5,0-0.5c0.1,0,0.3,0.2,0.3,0.2s0-0.5-0.2-0.6c0,0,0.1-0.1,0.3-0.1
	c-0.1-0.2-0.4-0.3-0.4-0.3c0,0,0-0.1,0.1-0.1c0.1,0,0.2-0.1,0.3-0.1c-0.1,0-0.2,0-0.3-0.1c-0.3-0.1-0.5-0.2-0.8-0.3
	c-0.5-0.2-0.9-0.3-1.1-0.3C31.3,21.7,31.1,21.7,30.9,21.8z"/>
<path fill-rule="evenodd" clip-rule="evenodd" fill="#F5D402" d="M36,39.6l0.4-0.3l-0.2-0.2L36,39.1L36,39.6z M36.2,38.9
	C36.2,38.9,36.1,38.9,36.2,38.9c-0.1,0.1,0,0.1,0,0.2c0.1,0,0.1,0,0.2,0c0,0,0-0.1-0.1-0.1C36.3,38.9,36.2,38.9,36.2,38.9
	C36.2,38.9,36.2,38.9,36.2,38.9L36.2,38.9z M37.1,37.2c-0.1,0-0.1,0-0.1,0.1c0,0.1,0,0.2,0.1,0.2c0.1,0.1,0.2,0,0.3-0.1
	c0-0.1,0-0.2-0.1-0.2C37.1,37.2,37.1,37.2,37.1,37.2L37.1,37.2L37.1,37.2z M38.3,34.7C38.3,34.7,38.3,34.8,38.3,34.7
	c-0.1,0.1-0.6,1.1-0.8,1.5c-0.1,0.1-0.3,0.2-0.4,0.4c-0.1,0.2,0,0.4,0.1,0.5c0.1,0.1,0.3,0,0.4-0.2c0.1-0.2,0-0.5,0.1-0.6
	c0.2-0.4,0.7-1.4,0.7-1.4S38.5,34.8,38.3,34.7C38.4,34.7,38.4,34.7,38.3,34.7L38.3,34.7L38.3,34.7z M38.4,34.4
	C38.4,34.4,38.4,34.4,38.4,34.4c-0.1,0.1-0.1,0.2,0,0.2c0.1,0,0.2,0,0.2,0c0-0.1,0-0.1-0.1-0.2C38.5,34.4,38.5,34.4,38.4,34.4
	L38.4,34.4L38.4,34.4z M38.6,34.1c-0.1,0-0.1,0-0.1,0.1c0,0.1,0,0.2,0.1,0.2c0.1,0.1,0.2,0,0.2,0c0-0.1,0-0.2-0.1-0.2
	C38.7,34.1,38.6,34.1,38.6,34.1C38.6,34.1,38.6,34.1,38.6,34.1L38.6,34.1z M38.7,33.8C38.7,33.8,38.6,33.9,38.7,33.8
	c-0.1,0.1-0.1,0.2,0,0.2c0.1,0,0.2,0,0.2,0c0-0.1,0-0.1-0.1-0.2C38.8,33.8,38.7,33.8,38.7,33.8L38.7,33.8L38.7,33.8L38.7,33.8z
	 M39.6,32.1C39.6,32.1,39.6,32.1,39.6,32.1c-0.1,0.1-0.1,0.2-0.3,0.6c-0.1,0.2-0.1,0.3-0.2,0.5c-0.1,0.2-0.3,0.5-0.3,0.5
	s-0.1,0.1,0,0.1c0.1,0,0.1,0,0.1,0s0.1-0.3,0.3-0.5c0.1-0.2,0.1-0.3,0.2-0.5c0.2-0.4,0.3-0.5,0.3-0.5C39.8,32.2,39.8,32.2,39.6,32.1
	C39.7,32.1,39.7,32.1,39.6,32.1L39.6,32.1L39.6,32.1L39.6,32.1z M40,30.9c0,0,0,0.5-0.2,0.7c-0.1,0.2-0.2,0.3-0.2,0.3
	s-0.1,0-0.1-0.1c0-0.1,0.1-0.1,0.2-0.1c0-0.1,0.1-0.1,0.1-0.3c0-0.2,0-0.5,0-0.5c0,0,0.4,0,0.4,0C40.3,30.9,40,30.9,40,30.9z
	 M40.5,31.2c0,0-0.4,0.3-0.5,0.5c-0.1,0.2-0.1,0.3-0.1,0.3s0.1,0.1,0.1,0s0-0.1,0-0.2c0-0.1,0-0.2,0.2-0.3c0.2-0.1,0.4-0.3,0.4-0.3
	c0,0-0.3-0.4-0.3-0.4C40.4,30.9,40.5,31.2,40.5,31.2z M40,31c0,0-0.1,0.5-0.2,0.7c-0.1,0.1-0.2,0.3-0.2,0.3l0.1,0l0.1,0l0.2-0.3
	c0,0,0.4-0.5,0.5-0.5c0-0.1-0.1-0.3-0.1-0.3C40.2,30.9,40.1,30.9,40,31z M40.4,30.5c-0.1,0-0.1,0-0.1,0.1c0,0.1,0,0.2,0.1,0.2
	c0.1,0,0.2,0,0.2-0.1C40.6,30.6,40.6,30.5,40.4,30.5C40.5,30.5,40.5,30.5,40.4,30.5L40.4,30.5L40.4,30.5z M40.7,30.1l-0.3,0.2
	l0.1,0.1l0.1,0.1L40.7,30.1L40.7,30.1L40.7,30.1L40.7,30.1z"/>
<path fill-rule="evenodd" clip-rule="evenodd" d="M26,36.6l-0.4,0.1c0,0,0.5,0.5,1,0.5c0.4,0,0.6-0.2,0.6-0.2l-0.1-0.4
	c-0.2-0.4-0.2-0.3-0.6-0.4C26.1,36,25.6,36,25.6,36C25.8,36.5,26,36.6,26,36.6z"/>
<path fill-rule="evenodd" clip-rule="evenodd" d="M26.9,35.7c-0.1,0.3,0.1,0.7,0.1,0.7l0.3,0.5c0.4-0.1,0.5-0.3,0.5-0.5
	c0.1-0.2,0-0.8,0-0.8s-0.2,0.2-0.3,0.2c0.1-0.3-0.2-0.7-0.2-0.7C27.2,35.4,27,35.4,26.9,35.7z"/>
<path fill-rule="evenodd" clip-rule="evenodd" d="M25.5,35.1c0,0-0.5-0.2-0.6-0.4c0,0,0.3-0.1,0.5-0.1C25.2,34.5,25,34,25,34
	s0.3-0.1,0.6,0c0.3,0.1,0.6,0.6,0.6,0.6l0.2,0.4C25.8,35.2,25.5,35.1,25.5,35.1z"/>
<path fill-rule="evenodd" clip-rule="evenodd" d="M26.6,33.7c0.1-0.1,0.3-0.2,0.3-0.2s0.1,0.6,0,1c-0.1,0.4-0.5,0.5-0.5,0.5
	l-0.4-0.8c0,0-0.1-0.3,0.1-0.6c0.1-0.2,0.4-0.5,0.4-0.5C26.4,33,26.6,33.5,26.6,33.7z"/>
<path fill-rule="evenodd" clip-rule="evenodd" d="M24.8,32.2l0.4,0.4l0.2,0.4c-0.4,0.2-0.4,0.2-0.8,0c-0.3-0.1-0.6-0.6-0.6-0.6
	s0.2-0.1,0.3-0.1c-0.1-0.1-0.3-0.3-0.3-0.3C24.5,31.9,24.8,32.2,24.8,32.2z"/>
<path fill-rule="evenodd" clip-rule="evenodd" d="M25.5,31.8l0.3-0.3c0,0,0.2,0.6,0.2,1c-0.1,0.4-0.4,0.6-0.4,0.6l-0.4-0.8
	c0.2,0.5-0.1-0.3-0.1-0.6c0-0.3,0.3-0.4,0.3-0.4C25.3,31.2,25.5,31.8,25.5,31.8z"/>
<path fill-rule="evenodd" clip-rule="evenodd" d="M23.9,30.5l0.2,0.3c-0.2-0.1-0.5-0.2-0.5-0.2s0.1,0.5,0.4,0.7
	c0.3,0.2,0.7,0.2,0.7,0.2s0.3-0.4,0.3-0.8c0-0.4-0.3-0.8-0.3-0.8s-0.1,0.3-0.1,0.5c-0.1-0.2-0.6-0.5-0.6-0.5L23.9,30.5z"/>
<path fill-rule="evenodd" clip-rule="evenodd" fill="#097754" d="M24.1,30.6c0.1,0.2,0.3,0.2,0.3,0.2s0-0.3-0.1-0.5
	c-0.1-0.2-0.3-0.2-0.3-0.2S24,30.4,24.1,30.6z"/>
<path fill-rule="evenodd" clip-rule="evenodd" fill="#097754" d="M24.2,30.9c0.2,0.1,0.2,0.4,0.2,0.4s-0.2,0-0.3-0.1
	c-0.2-0.1-0.3-0.4-0.3-0.4S24,30.8,24.2,30.9z"/>
<path fill-rule="evenodd" clip-rule="evenodd" fill="#097754" d="M24.5,30.6c0,0.2,0.1,0.5,0.1,0.5s0.1-0.3,0.1-0.5
	c0-0.2-0.1-0.4-0.2-0.4C24.6,30.1,24.5,30.3,24.5,30.6z"/>
<path fill-rule="evenodd" clip-rule="evenodd" fill="#097754" d="M24.5,32.5c0.2,0.1,0.5,0.1,0.5,0.1s-0.2-0.2-0.4-0.3
	c-0.2-0.1-0.5-0.1-0.5-0.1C24.3,32.3,24.3,32.3,24.5,32.5z"/>
<path fill-rule="evenodd" clip-rule="evenodd" fill="#097754" d="M24.5,32.9c0.2,0.1,0.5,0.1,0.5,0.1s-0.1-0.2-0.3-0.3
	c-0.2-0.1-0.5-0.1-0.5-0.1S24.3,32.8,24.5,32.9z"/>
<path fill-rule="evenodd" clip-rule="evenodd" fill="#097754" d="M25.2,31.9c0,0.2,0.1,0.4,0.1,0.4s0.1-0.2,0.1-0.4
	c0-0.2-0.1-0.3-0.1-0.3S25.1,31.7,25.2,31.9z"/>
<path fill-rule="evenodd" clip-rule="evenodd" fill="#097754" d="M25.4,32.3c0,0.3,0.1,0.5,0.1,0.5s0.2-0.2,0.2-0.5
	c0-0.3-0.1-0.5-0.1-0.5C25.5,32.1,25.5,32.1,25.4,32.3z"/>
<path fill-rule="evenodd" clip-rule="evenodd" fill="#097754" d="M25.4,34.5c0.1,0.1,0.2,0,0.4,0.1c0.2,0,0.3,0.2,0.3,0.2
	s-0.3-0.5-0.5-0.6c-0.2-0.1-0.6-0.2-0.6-0.2s0,0.2,0.1,0.3C25.3,34.5,25.3,34.5,25.4,34.5z"/>
<path fill-rule="evenodd" clip-rule="evenodd" fill="#097754" d="M25.7,34.7c0.2,0,0.5,0.2,0.5,0.2S25.8,35,25.5,35
	c-0.2,0-0.4-0.2-0.4-0.2C25.1,34.6,25.4,34.7,25.7,34.7z"/>
<path fill-rule="evenodd" clip-rule="evenodd" fill="#097754" d="M26.1,33.9c0,0.2,0.2,0.5,0.2,0.5s0-0.2,0-0.3
	c0-0.1,0.1-0.2,0.1-0.2s0-0.1,0-0.2c0-0.1-0.1-0.3-0.1-0.3C26.2,33.7,26.1,33.7,26.1,33.9z"/>
<path fill-rule="evenodd" clip-rule="evenodd" fill="#097754" d="M26.4,34.2c-0.1,0.3,0.1,0.6,0.1,0.6s0.2-0.2,0.3-0.4
	c0.1-0.3,0-0.6,0-0.6C26.6,34,26.5,34,26.4,34.2z"/>
<path fill-rule="evenodd" clip-rule="evenodd" fill="#097754" d="M27.5,35.8c0,0.2,0,0.3,0,0.3s-0.1,0.1-0.2,0.2
	c-0.1,0.1-0.1,0.2-0.1,0.2S27,36.1,27,35.9c0-0.3,0.3-0.5,0.3-0.5C27.3,35.2,27.5,35.7,27.5,35.8z"/>
<path fill-rule="evenodd" clip-rule="evenodd" fill="#097754" d="M27.4,36.3l-0.1,0.4c0,0,0.2,0,0.3-0.2c0.1-0.2,0.1-0.6,0.1-0.6
	C27.7,35.6,27.4,36.3,27.4,36.3z"/>
<path fill-rule="evenodd" clip-rule="evenodd" fill="#097754" d="M26.6,36.8c0.3,0.1,0.4,0.2,0.4,0.2s-0.3,0.1-0.5,0.1
	c-0.3-0.1-0.5-0.3-0.5-0.3C25.9,36.6,26.3,36.7,26.6,36.8z"/>
<path fill-rule="evenodd" clip-rule="evenodd" fill="#097754" d="M26.3,36.6c0.4,0.2,0.7,0.1,0.7,0.1l-0.5-0.4l-0.7-0.1
	C25.8,36.1,25.9,36.5,26.3,36.6z"/>
<path fill-rule="evenodd" clip-rule="evenodd" d="M27.2,37l0,0.2c0.3,0,0.3,0,0.4,0.1c0,0.1,0.1,0.1,0.2,0.1c0.1,0,0.1-0.2,0.1-0.3
	c0-0.1-0.1-0.1-0.2-0.1c-0.1,0-0.1,0.1-0.1,0.1C27.4,37,27.2,37,27.2,37L27.2,37L27.2,37z"/>
<path fill-rule="evenodd" clip-rule="evenodd" fill="#F5D402" d="M27.8,37L27.8,37c0,0.1,0,0.1-0.1,0.2c-0.1,0-0.1,0-0.1-0.1
	c0,0,0,0,0,0l0,0c0-0.1,0-0.1,0.1-0.2C27.7,36.9,27.8,37,27.8,37C27.8,37,27.8,37,27.8,37L27.8,37L27.8,37L27.8,37L27.8,37z"/>
<path fill-rule="evenodd" clip-rule="evenodd" d="M27.2,36.9l0.1,0.1c-0.1,0.2-0.2,0.2-0.1,0.3c0,0.1,0,0.2-0.1,0.2
	c-0.1,0.1-0.2,0-0.3-0.1c-0.1-0.1,0-0.2,0-0.3c0,0,0.1-0.1,0.1-0.1C27,37.1,27.2,36.9,27.2,36.9L27.2,36.9L27.2,36.9z"/>
<path fill-rule="evenodd" clip-rule="evenodd" fill="#F5D402" d="M26.8,37.4L26.8,37.4c0,0.1,0.1,0.1,0.2,0c0.1,0,0.1-0.1,0-0.2
	c0,0,0,0,0,0l0,0c0-0.1-0.1-0.1-0.2,0C26.8,37.3,26.8,37.4,26.8,37.4C26.8,37.4,26.8,37.4,26.8,37.4L26.8,37.4L26.8,37.4L26.8,37.4
	L26.8,37.4z"/>
<path fill-rule="evenodd" clip-rule="evenodd" d="M26.3,35.1l0,0.2c0.3,0,0.3,0,0.4,0.1c0,0.1,0.1,0.1,0.2,0.1
	c0.1,0,0.1-0.2,0.1-0.3c0-0.1-0.1-0.1-0.2-0.1c-0.1,0-0.1,0.1-0.1,0.1C26.5,35.1,26.3,35.1,26.3,35.1L26.3,35.1L26.3,35.1z"/>
<path fill-rule="evenodd" clip-rule="evenodd" fill="#F5D402" d="M26.9,35.1L26.9,35.1c0,0.1,0,0.1-0.1,0.2c-0.1,0-0.1,0-0.1-0.1
	c0,0,0,0,0,0l0,0c0-0.1,0-0.1,0.1-0.2C26.8,35,26.9,35,26.9,35.1C26.9,35.1,26.9,35.1,26.9,35.1L26.9,35.1L26.9,35.1L26.9,35.1
	L26.9,35.1z"/>
<path fill-rule="evenodd" clip-rule="evenodd" d="M26.4,35.1l0.1,0.1c-0.2,0.2-0.2,0.2-0.2,0.3c0,0.1,0,0.2-0.1,0.2
	c-0.1,0-0.2,0-0.3-0.1c0-0.1,0-0.2,0.1-0.3c0,0,0.1,0,0.2-0.1C26.2,35.3,26.4,35.1,26.4,35.1L26.4,35.1L26.4,35.1L26.4,35.1z"/>
<path fill-rule="evenodd" clip-rule="evenodd" fill="#F5D402" d="M26,35.6L26,35.6c0,0.1,0.1,0.1,0.1,0.1c0.1,0,0.1-0.1,0.1-0.2
	c0,0,0,0,0,0l0,0c0-0.1-0.1-0.1-0.1-0.1C26,35.5,25.9,35.6,26,35.6C26,35.6,26,35.6,26,35.6L26,35.6L26,35.6z"/>
<path fill-rule="evenodd" clip-rule="evenodd" d="M25.4,33.2l0,0.2c0.3,0,0.3,0,0.4,0.1c0,0.1,0.1,0.1,0.2,0.1
	c0.1,0,0.1-0.2,0.1-0.3c0-0.1-0.1-0.1-0.2-0.1c-0.1,0-0.1,0.1-0.1,0.1C25.7,33.2,25.4,33.2,25.4,33.2L25.4,33.2L25.4,33.2z"/>
<path fill-rule="evenodd" clip-rule="evenodd" fill="#F5D402" d="M26.1,33.3L26.1,33.3c0,0.1,0,0.1-0.1,0.2c-0.1,0-0.1,0-0.1-0.1
	c0,0,0,0,0,0l0,0c0-0.1,0-0.1,0.1-0.2C26,33.2,26.1,33.2,26.1,33.3C26.1,33.3,26.1,33.3,26.1,33.3L26.1,33.3L26.1,33.3L26.1,33.3z"
	/>
<path fill-rule="evenodd" clip-rule="evenodd" d="M25.5,33.2l0.1,0.1c-0.2,0.2-0.2,0.2-0.2,0.3c0,0.1,0,0.2-0.1,0.2
	c-0.1,0-0.2,0-0.3-0.1c0-0.1,0-0.2,0.1-0.3c0,0,0.1,0,0.2-0.1C25.4,33.4,25.5,33.2,25.5,33.2L25.5,33.2L25.5,33.2z"/>
<path fill-rule="evenodd" clip-rule="evenodd" fill="#F5D402" d="M25.1,33.7L25.1,33.7c0,0.1,0.1,0.1,0.1,0.1c0.1,0,0.1-0.1,0.1-0.2
	c0,0,0,0,0,0l0,0c0-0.1-0.1-0.1-0.1-0.1C25.1,33.6,25.1,33.6,25.1,33.7C25.1,33.7,25.1,33.7,25.1,33.7L25.1,33.7L25.1,33.7z"/>
<path fill-rule="evenodd" clip-rule="evenodd" d="M24.5,31.3l0,0.2c0.3,0,0.3,0,0.4,0.1c0,0.1,0.1,0.1,0.2,0.1
	c0.1,0,0.1-0.2,0.1-0.3c0-0.1-0.1-0.1-0.2-0.1c-0.1,0-0.1,0.1-0.1,0.1C24.8,31.3,24.5,31.3,24.5,31.3L24.5,31.3L24.5,31.3L24.5,31.3
	z"/>
<path fill-rule="evenodd" clip-rule="evenodd" fill="#F5D402" d="M25.2,31.3L25.2,31.3c0,0.1,0,0.1-0.1,0.2c-0.1,0-0.1,0-0.1-0.1
	c0,0,0,0,0,0l0,0c0-0.1,0-0.1,0.1-0.2C25.1,31.2,25.1,31.3,25.2,31.3C25.2,31.3,25.2,31.3,25.2,31.3L25.2,31.3L25.2,31.3z"/>
<path fill-rule="evenodd" clip-rule="evenodd" d="M24.6,31.3l0.1,0.1c-0.2,0.2-0.2,0.2-0.2,0.3c0,0.1,0,0.2-0.1,0.2
	c-0.1,0-0.2,0-0.3-0.1c0-0.1,0-0.2,0.1-0.3c0,0,0.1,0,0.2-0.1C24.5,31.5,24.6,31.3,24.6,31.3L24.6,31.3L24.6,31.3L24.6,31.3
	L24.6,31.3z"/>
<path fill-rule="evenodd" clip-rule="evenodd" fill="#F5D402" d="M24.2,31.8L24.2,31.8c0,0.1,0.1,0.1,0.1,0.1c0.1,0,0.1-0.1,0.1-0.2
	c0,0,0,0,0,0l0,0c0-0.1-0.1-0.1-0.1-0.1C24.2,31.6,24.2,31.7,24.2,31.8C24.2,31.8,24.2,31.8,24.2,31.8L24.2,31.8L24.2,31.8z"/>
<path fill-rule="evenodd" clip-rule="evenodd" fill="#F5D402" d="M26.1,34.6c-0.1,0-0.2-0.4-0.3-0.6c-0.1-0.2-0.3-0.6-0.2-0.6
	c0.1,0,0.1,0.2,0.3,0.4C25.9,34,26.2,34.6,26.1,34.6L26.1,34.6L26.1,34.6L26.1,34.6z"/>
<path fill-rule="evenodd" clip-rule="evenodd" fill="#F5D402" d="M25.2,32.5c-0.1,0-0.2-0.2-0.3-0.4c-0.1-0.2-0.2-0.4-0.1-0.4
	c0.1,0,0.2,0.2,0.2,0.4C25.1,32.2,25.3,32.5,25.2,32.5C25.2,32.5,25.3,32.5,25.2,32.5L25.2,32.5z"/>
<path fill-rule="evenodd" clip-rule="evenodd" fill="#F5D402" d="M27.4,37.3c-0.1,0-0.4-0.6-0.6-1.2c-0.3-0.6-0.4-1-0.4-1
	c0.1,0,0.3,0.5,0.5,1.1C27.1,36.6,27.4,37.2,27.4,37.3L27.4,37.3L27.4,37.3z"/>
<path fill-rule="evenodd" clip-rule="evenodd" d="M31.8,22.6c0,0.1-0.1,0.2-0.3,0.2c-0.2,0-0.3-0.1-0.3-0.2c0-0.1,0.1-0.2,0.3-0.2
	C31.7,22.3,31.8,22.4,31.8,22.6L31.8,22.6L31.8,22.6z"/>
<path fill-rule="evenodd" clip-rule="evenodd" fill="#CC092F" d="M30.3,22.2l0.5,0c0,0.1,0.3,0.3,0.3,0.6c0,0-0.2-0.4-0.8-0.4
	c-0.2,0-0.3,0.1-0.3,0.1C29.9,22.4,30.3,22.2,30.3,22.2z"/>
<path fill-rule="evenodd" clip-rule="evenodd" d="M30.6,22.4c0,0,0.1-0.1,0.1,0c0,0,0,0.1,0,0.1C30.7,22.4,30.6,22.4,30.6,22.4z"/>
<path fill-rule="evenodd" clip-rule="evenodd" fill="#D10429" d="M30.8,23.1c-0.1-0.1-0.5-0.3-0.5-0.3s0.4,0.2,0.7,0.1
	C30.2,22.6,30.9,23,30.8,23.1z"/>
<path fill-rule="evenodd" clip-rule="evenodd" fill="#F5D402" d="M31.7,22.6c0,0.1-0.1,0.2-0.2,0.2c-0.1,0-0.2-0.1-0.2-0.2
	c0-0.1,0.1-0.2,0.2-0.2C31.6,22.3,31.7,22.4,31.7,22.6L31.7,22.6L31.7,22.6L31.7,22.6z"/>
<path fill-rule="evenodd" clip-rule="evenodd" d="M31.6,22.6c0,0.1,0,0.1-0.1,0.1c-0.1,0-0.1,0-0.1-0.1c0-0.1,0-0.1,0.1-0.1
	C31.6,22.5,31.6,22.5,31.6,22.6C31.6,22.6,31.6,22.5,31.6,22.6z"/>
<path fill-rule="evenodd" clip-rule="evenodd" fill="#F5D402" d="M28.1,27H32H36c0,0,0,0.1,0,0.4v6v0.9c0,0.2-0.2,0.5-1,1
	c-1.5,0.7-2.6,1.1-2.9,1.5c-0.3-0.4-1.5-0.8-2.9-1.5c-0.9-0.4-1-0.8-1-1v-0.9v-6c0-0.2-0.1-0.4-0.1-0.4H28.1z M27.8,27.3v6v0.9
	c0,0.2,0.1,0.3,0.1,0.4c0.1,0.1,0.3,0.3,0.5,0.4c0.6,0.4,1.6,0.8,2.4,1.2c0.6,0.3,0.9,0.4,1.2,0.8c0.3-0.4,0.6-0.5,1.2-0.8
	c0.8-0.3,1.8-0.8,2.4-1.2c0.2-0.1,0.4-0.3,0.5-0.4c0.1-0.1,0.1-0.2,0.1-0.4v-0.9v-6c0-0.3,0.4-0.6,0.4-0.6h-0.4H36H32h-3.9h-0.2
	c-0.2,0-1.7-1.9-0.9-0.7L27.8,27.3z"/>
</svg>
