<?xml version="1.0" encoding="utf-8"?>
<!-- Generator: Adobe Illustrator 16.0.0, SVG Export Plug-In . SVG Version: 6.00 Build 0)  -->
<!DOCTYPE svg PUBLIC "-//W3C//DTD SVG 1.1//EN" "http://www.w3.org/Graphics/SVG/1.1/DTD/svg11.dtd">
<svg version="1.1" id="Layer_1" xmlns="http://www.w3.org/2000/svg" xmlns:xlink="http://www.w3.org/1999/xlink" x="0px" y="0px"
	 width="64px" height="64px" viewBox="0 0 64 64" enable-background="new 0 0 64 64" xml:space="preserve">
<g>
	<path fill="#E9E8E9" d="M32.029,64C49.602,64,64,49.602,64,32.027C64,14.398,49.602,0,32.029,0C14.398,0,0,14.398,0,32.027
		C0,49.602,14.398,64,32.029,64L32.029,64z"/>
	<polygon fill="#177298" points="17.971,7.992 20.407,15.589 28.457,15.589 21.938,20.294 24.432,27.891 17.971,23.186 
		11.508,27.891 14.001,20.294 7.539,15.589 15.532,15.589 	"/>
	<polygon fill="#BE3530" points="45.973,34.011 43.535,41.607 35.542,41.607 42.004,46.313 39.511,53.909 45.973,49.205 
		52.436,53.909 49.941,46.313 56.46,41.607 48.467,41.607 	"/>
	<path fill="#177298" d="M32.029,64V32.027H0C0,49.658,14.341,64,32.029,64L32.029,64z"/>
	<path fill="#BE3530" d="M32.029,32.027H64C64,14.341,49.658,0,32.029,0V32.027z"/>
</g>
</svg>
