<?xml version="1.0" encoding="utf-8"?>
<!-- Generator: Adobe Illustrator 17.0.0, SVG Export Plug-In . SVG Version: 6.00 Build 0)  -->
<!DOCTYPE svg PUBLIC "-//W3C//DTD SVG 1.1//EN" "http://www.w3.org/Graphics/SVG/1.1/DTD/svg11.dtd">
<svg version="1.1" id="Layer_1" xmlns="http://www.w3.org/2000/svg" xmlns:xlink="http://www.w3.org/1999/xlink" x="0px" y="0px"
	 width="500px" height="857.388px" viewBox="630 531.306 500 857.388" enable-background="new 630 531.306 500 857.388"
	 xml:space="preserve">
<path d="M1121.409,940.24L721.065,539.897c-5.727-5.727-12.314-8.591-19.76-8.591c-7.445,0-14.032,2.864-19.759,8.591
	l-42.955,42.955c-5.727,5.727-8.591,12.314-8.591,19.76c0,7.445,2.864,14.032,8.591,19.759L976.22,960l-337.629,337.629
	c-5.727,5.727-8.591,12.314-8.591,19.759c0,7.446,2.864,14.032,8.591,19.76l42.955,42.955c5.727,5.727,12.314,8.591,19.759,8.591
	c7.446,0,14.032-2.864,19.76-8.591l400.344-400.344c5.727-5.727,8.591-12.314,8.591-19.76S1127.136,945.968,1121.409,940.24z"/>
</svg>
