<?xml version="1.0" encoding="utf-8"?>
<!-- Generator: Adobe Illustrator 17.0.0, SVG Export Plug-In . SVG Version: 6.00 Build 0)  -->
<!DOCTYPE svg PUBLIC "-//W3C//DTD SVG 1.1//EN" "http://www.w3.org/Graphics/SVG/1.1/DTD/svg11.dtd">
<svg version="1.1" id="Layer_1" xmlns="http://www.w3.org/2000/svg" xmlns:xlink="http://www.w3.org/1999/xlink" x="0px" y="0px"
	 width="500px" height="857.388px" viewBox="662 531.306 500 857.388" enable-background="new 662 531.306 500 857.388"
	 xml:space="preserve">
<path d="M815.78,960l337.629-337.629c5.727-5.727,8.591-12.314,8.591-19.759s-2.864-14.032-8.591-19.759l-42.955-42.955
	c-5.727-5.727-12.314-8.591-19.76-8.591s-14.032,2.864-19.759,8.591L670.591,940.241C664.864,945.968,662,952.554,662,960
	s2.864,14.032,8.591,19.759l400.344,400.344c5.727,5.727,12.314,8.591,19.759,8.591s14.032-2.864,19.76-8.591l42.955-42.955
	c5.727-5.727,8.591-12.314,8.591-19.76s-2.864-14.032-8.591-19.759L815.78,960z"/>
</svg>
