<?xml version="1.0" encoding="UTF-8" standalone="no"?>
<svg width="24px" height="17px" viewBox="0 0 24 17" version="1.1" xmlns="http://www.w3.org/2000/svg" xmlns:xlink="http://www.w3.org/1999/xlink" xmlns:sketch="http://www.bohemiancoding.com/sketch/ns">
    <!-- Generator: Sketch 3.5.2 (25235) - http://www.bohemiancoding.com/sketch -->
    <title>card-bank</title>
    <desc>Created with Sketch.</desc>
    <defs></defs>
    <g id="Page-1" stroke="none" stroke-width="1" fill="none" fill-rule="evenodd" sketch:type="MSPage">
        <g id="card-bank" sketch:type="MSLayerGroup" fill="#000000">
            <path d="M3,0 C1.3550302,0 0,1.3550302 0,3 L0,14 C0,15.64497 1.3550302,17 3,17 L21,17 C22.64497,17 24,15.64497 24,14 L24,3 C24,1.3550302 22.64497,0 21,0 L3,0 L3,0 Z M3,2 L21,2 C21.56503,2 22,2.4349698 22,3 L22,4 L2,4 L2,3 C2,2.4349698 2.4349698,2 3,2 L3,2 Z M2,7 L22,7 L22,14 C22,14.56503 21.56503,15 21,15 L3,15 C2.4349698,15 2,14.56503 2,14 L2,7 L2,7 Z" id="Shape" sketch:type="MSShapeGroup"></path>
        </g>
    </g>
</svg>