<?xml version="1.0" encoding="utf-8"?>
<!-- Generator: Adobe Illustrator 17.0.0, SVG Export Plug-In . SVG Version: 6.00 Build 0)  -->
<!DOCTYPE svg PUBLIC "-//W3C//DTD SVG 1.1//EN" "http://www.w3.org/Graphics/SVG/1.1/DTD/svg11.dtd">
<svg version="1.1" id="Layer_1" xmlns="http://www.w3.org/2000/svg" xmlns:xlink="http://www.w3.org/1999/xlink" x="0px" y="0px"
	 width="500px" height="500.006px" viewBox="0 0 500 500.006" enable-background="new 0 0 500 500.006" xml:space="preserve">
<path d="M250.001,500.006C111.736,500.006,0,388.27,0,250.005C0,111.736,111.736,0,250.001,0C388.264,0,500,111.736,500,250.005
	C500,388.27,388.264,500.006,250.001,500.006z M250.001,41.533c-114.899,0-208.471,93.569-208.471,208.471
	c0,114.893,93.573,208.466,208.471,208.466S458.47,364.898,458.47,250.005C458.47,135.102,364.9,41.533,250.001,41.533z"/>
<path d="M201.019,335.111l-52.039-77.66c-6.43-9.589-4.287-22.345,5.306-28.676c9.591-6.324,22.346-4.28,28.674,5.311l38.265,56.422
	l97.652-97.648c8.267-8.265,21.837-8.569,30.104-0.204c8.469,8.463,8.367,21.226-0.102,29.693L232.958,337.248
	C229.592,341.429,213.266,350.312,201.019,335.111z"/>
</svg>
