<?xml version="1.0" encoding="utf-8"?>
<!-- Generator: Adobe Illustrator 17.0.0, SVG Export Plug-In . SVG Version: 6.00 Build 0)  -->
<!DOCTYPE svg PUBLIC "-//W3C//DTD SVG 1.1//EN" "http://www.w3.org/Graphics/SVG/1.1/DTD/svg11.dtd">
<svg version="1.1" id="Layer_1" xmlns="http://www.w3.org/2000/svg" xmlns:xlink="http://www.w3.org/1999/xlink" x="0px" y="0px"
	 width="561px" height="561px" viewBox="25.5 115.5 561 561" enable-background="new 25.5 115.5 561 561" xml:space="preserve">
<path d="M306,115.5C151.386,115.5,25.5,241.386,25.5,396S151.386,676.5,306,676.5S586.5,550.614,586.5,396S460.614,115.5,306,115.5z
	 M306,166.5c127.051,0,229.5,102.449,229.5,229.5S433.051,625.5,306,625.5S76.5,523.051,76.5,396S178.949,166.5,306,166.5z
	 M443.859,298.781L280.5,461.344l-83.672-83.672l-36.656,36.656l102,102l18.328,17.531l18.328-17.531l180.891-181.688
	L443.859,298.781z"/>
</svg>
