<?xml version="1.0" encoding="utf-8"?>
<!-- Generator: Adobe Illustrator 21.0.0, SVG Export Plug-In . SVG Version: 6.00 Build 0)  -->
<svg version="1.1" id="Capa_1" xmlns="http://www.w3.org/2000/svg" xmlns:xlink="http://www.w3.org/1999/xlink" x="0px" y="0px"
	 viewBox="0 0 179 179" style="enable-background:new 0 0 179 179;" xml:space="preserve">
<style type="text/css">
	.st0{fill:#2D8EA2;}
</style>
<g>
	<g>
		<path class="st0" d="M10.5,50.1c0,1.8,0,3.5,0,5.3c50.9,33.3,101.8-46,152.7-20.2c0,30.2,0,60.5,0,90.7c1.7,0.9,3.5,1.9,5.3,3.1
			c0-32,0-64,0-96C115.8-1.5,63.2,84.6,10.5,50.1z"/>
		<path class="st0" d="M21.1,44.9c0,1.8,0,3.5,0,5.3C71.9,69,122.9-9.8,173.7,31.5c0,30.2,0,60.5,0,90.7c1.8,1.4,3.5,3,5.3,4.7
			c0-32,0-64,0-96C126.4-20.6,73.7,64.4,21.1,44.9z"/>
		<g>
			<path class="st0" d="M0,52.1c0,32,0,64,0,96c52.6,51.6,105.3-33.4,157.9-13.9c0-32,0-64,0-96C105.3,18.6,52.6,103.7,0,52.1z
				 M79,140.6c-19.6,9.9-35.5-4.1-35.5-24c0-19.3,15.9-37.1,35.5-47c19.6-9.8,35.5-0.8,35.5,19.1C114.5,108,98.6,130.8,79,140.6z"/>
			<path class="st0" d="M90.2,99.1c-1.7-0.4-4.9,0-9.7,1c0-5,0-10,0-15c2.8-1.2,4.9-1.2,6.2,0.3c0.7,0.8,1.1,1.9,1.3,3.4
				c1.8-0.9,3.6-1.8,5.4-2.6c-0.1-3.4-1.3-5.7-3.4-6.7c-2.2-1.1-5.3-0.7-9.4,1c0-1.3,0-2.7,0-4c-1,0.5-2,0.9-2.9,1.4
				c0,1.4,0,2.7,0,4.1c-4.1,2-7.3,4.6-9.6,8c-2.3,3.4-3.4,6.7-3.4,9.8c0,3.5,1.1,5.8,3.2,7c2.1,1.1,5.4,1.1,9.9-0.1
				c0,5.6,0,11.2,0,16.8c-3.5,1.3-5.9,1-7.1-0.7c-0.7-1-1.2-2.9-1.3-5.6c-1.8,0.8-3.6,1.5-5.5,2.1c0,3.5,0.6,6.1,1.8,7.8
				c2.1,3,6.2,3.5,12.2,1.1c0,2,0,4,0,6c1-0.5,2-0.9,2.9-1.4c0-2,0-4,0-6c3.7-2.2,6.6-4.4,8.5-6.7c3.6-4.1,5.3-8.8,5.3-14.3
				C94.3,101.8,93,99.7,90.2,99.1z M77.5,100.8c-2.3,0.6-4.1,0.6-5.5,0.1c-1.4-0.6-2-1.9-2-3.9c0-1.7,0.6-3.5,1.7-5.6
				c1.2-2,3.1-3.7,5.8-5.1C77.5,91.2,77.5,96,77.5,100.8z M87.7,114.7c-1.3,3.1-3.8,5.5-7.3,7.4c0-5.4,0-10.8,0-16.2
				c2.6-0.5,4.4-0.7,5.5-0.4c1.9,0.4,2.8,1.9,2.8,4.5C88.8,111.5,88.4,113.1,87.7,114.7z"/>
		</g>
	</g>
</g>
</svg>
