<?xml version="1.0" encoding="utf-8"?>
<!-- Generator: Adobe Illustrator 17.0.0, SVG Export Plug-In . SVG Version: 6.00 Build 0)  -->
<!DOCTYPE svg PUBLIC "-//W3C//DTD SVG 1.1//EN" "http://www.w3.org/Graphics/SVG/1.1/DTD/svg11.dtd">
<svg version="1.1" id="Layer_1" xmlns="http://www.w3.org/2000/svg" xmlns:xlink="http://www.w3.org/1999/xlink" x="0px" y="0px"
	 width="500px" height="501.515px" viewBox="0 0 500 501.515" enable-background="new 0 0 500 501.515" xml:space="preserve">
<g>
	<path fill="none" d="M67.424,32.576c-18.182,0-33.333,15.152-33.333,33.333s15.151,33.333,33.333,33.333
		c9.091,0,17.424-3.788,23.485-9.848C96.97,83.333,100,75,100.758,65.909C100.758,47.727,85.606,32.576,67.424,32.576z"/>
	<path fill="none" d="M67.424,234.091c-18.182,0-33.333,15.152-33.333,33.333s15.151,33.333,33.333,33.333
		s32.576-15.151,33.333-33.333c0-9.091-3.788-17.424-9.849-23.485C84.849,237.879,76.515,234.091,67.424,234.091z"/>
	<path d="M166.667,190.152l121.212,121.97c3.03,3.03,7.576,4.545,12.121,4.545c4.546,0,8.333-1.515,12.121-4.545
		c6.818-6.818,6.818-17.424,0-23.485l-121.97-121.97l121.212-121.97c6.818-6.818,6.818-17.424,0-23.485
		c-6.818-6.818-17.424-6.818-23.485,0l-121.212,121.97l-42.424-42.424c6.061-9.848,9.091-21.212,9.091-34.091
		C133.333,29.545,103.788,0,66.667,0S0,30.303,0,66.667c0,37.121,29.545,66.667,66.667,66.667c12.121,0,24.242-3.03,34.091-9.091
		l42.424,42.424l-42.424,42.424C90.909,203.03,79.545,200,66.667,200C30.303,200,0,230.303,0,266.667
		c0,37.121,29.545,66.667,66.667,66.667s66.667-30.303,66.667-66.667c0-12.121-3.03-24.242-9.091-34.091L166.667,190.152z
		 M90.909,89.394c-6.061,6.061-14.394,9.848-23.485,9.848c-18.182,0-33.333-15.151-33.333-33.333s15.151-33.333,33.333-33.333
		s33.333,15.152,33.333,33.333C100,75,96.97,83.333,90.909,89.394z M67.424,300.758c-18.182,0-33.333-15.151-33.333-33.333
		s15.151-33.333,33.333-33.333c9.091,0,17.424,3.788,23.485,9.849c6.061,6.061,9.849,14.394,9.849,23.485
		C100,285.606,85.606,300.758,67.424,300.758z"/>
	<path d="M216.667,468.182H200v-16.667c0-9.091-7.576-16.667-16.667-16.667s-16.667,7.576-16.667,16.667v33.333
		c0,9.091,7.576,16.667,16.667,16.667h33.333c9.091,0,16.667-7.576,16.667-16.667C233.333,475,225.758,468.182,216.667,468.182z"/>
	<path d="M183.333,389.394c9.091,0,16.667-7.576,16.667-16.667v-78.03c0-9.091-6.818-16.667-16.667-16.667
		c-9.091,0-16.667,7.576-16.667,16.667v78.03C166.667,381.818,174.242,389.394,183.333,389.394z"/>
	<path d="M371.97,166.667h-78.03c-9.091,0-16.667,7.576-16.667,16.667c0,9.091,7.576,16.667,16.667,16.667h78.03
		c9.091,0,16.667-7.576,16.667-16.667C388.636,174.242,381.818,166.667,371.97,166.667z"/>
	<path d="M483.333,166.667H450c-9.091,0-16.667,7.576-16.667,16.667c0,9.091,7.576,16.667,16.667,16.667h16.667v16.667
		c0,9.091,7.576,16.667,16.667,16.667S500,225.757,500,216.667v-33.333C500,174.242,492.424,166.667,483.333,166.667z"/>
	<path d="M483.333,278.03c-9.091,0-16.667,7.576-16.667,16.667v78.03c0,9.091,7.576,16.667,16.667,16.667S500,381.818,500,372.727
		v-78.03C500,285.606,492.424,278.03,483.333,278.03z"/>
	<path d="M483.333,434.091c-9.091,0-16.667,7.576-16.667,16.667v16.667H450c-9.091,0-16.667,7.576-16.667,16.667
		s7.576,16.667,16.667,16.667h33.333c9.091,0,16.667-7.576,16.667-16.667v-33.333C500,441.667,492.424,434.091,483.333,434.091z"/>
	<path d="M371.97,468.182h-78.03c-9.091,0-16.667,7.576-16.667,16.667s7.576,16.667,16.667,16.667h78.03
		c9.091,0,16.667-7.576,16.667-16.667C388.636,475,381.818,468.182,371.97,468.182z"/>
</g>
</svg>
