<?xml version="1.0" encoding="utf-8"?><!-- Generator: Adobe Illustrator 17.0.2, SVG Export Plug-In . SVG Version: 6.00 Build 0)  --><!DOCTYPE svg PUBLIC "-//W3C//DTD SVG 1.0//EN" "http://www.w3.org/TR/2001/REC-SVG-20010904/DTD/svg10.dtd"><svg xmlns="http://www.w3.org/2000/svg" xmlns:xlink="http://www.w3.org/1999/xlink" version="1.0" id="Layer_1" x="0px" y="0px" width="26px" height="26px" viewBox="0 0 26 26" style="enable-background:new 0 0 26 26;" xml:space="preserve">
<g>
	<path d="M7,5c0.551,0,1-0.449,1-1V1c0-0.552-0.449-1-1-1S6,0.448,6,1v3C6,4.551,6.449,5,7,5z"/>
	<path d="M23,2h-2v2c0,1.103-0.896,2-2,2s-2-0.897-2-2V2H9v2c0,1.103-0.896,2-2,2C5.896,6,5,5.103,5,4V2H3C1.344,2,0,3.343,0,5v18   c0,1.656,1.344,3,3,3h20c1.656,0,3-1.344,3-3V5C26,3.343,24.656,2,23,2z M24,23c0,0.551-0.449,1-1,1H3c-0.551,0-1-0.449-1-1V9h22   V23z"/>
	<path d="M19,5c0.551,0,1-0.449,1-1V1c0-0.552-0.449-1-1-1s-1,0.448-1,1v3C18,4.551,18.449,5,19,5z"/>
	<path d="M4.5,22h17c0.276,0,0.5-0.224,0.5-0.5v-10c0-0.276-0.224-0.5-0.5-0.5h-17C4.224,11,4,11.224,4,11.5v10   C4,21.776,4.224,22,4.5,22z M9,21v-1h4v1H9z M9,18v-3h4v3H9z M17,21h-3v-1.092c0.424-0.151,0.757-0.484,0.908-0.908H17V21z M17,18   h-2v-3h2V18z M18,12h3v2h-3V12z M18,15h3v3h-3V15z M18,19h3v2h-3V19z M17,12v2h-2.092c-0.151-0.424-0.484-0.757-0.908-0.908V12H17z    M13,12v1H9v-1H13z M5,12h3v1.092C7.576,13.243,7.243,13.576,7.092,14H5V12z M5,15h2v3H5V15z M5,19h2.092   C7.243,19.424,7.576,19.757,8,19.908V21H5V19z"/>
</g>
</svg>