<?xml version="1.0" encoding="utf-8"?>
<!-- Generator: Adobe Illustrator 17.0.0, SVG Export Plug-In . SVG Version: 6.00 Build 0)  -->
<!DOCTYPE svg PUBLIC "-//W3C//DTD SVG 1.1//EN" "http://www.w3.org/Graphics/SVG/1.1/DTD/svg11.dtd">
<svg version="1.1" id="Layer_1" xmlns="http://www.w3.org/2000/svg" xmlns:xlink="http://www.w3.org/1999/xlink" x="0px" y="0px"
	 width="500px" height="500px" viewBox="-218 -218 500 500" enable-background="new -218 -218 500 500" xml:space="preserve">
<g>
	<path d="M219.5-72.167h-41.667v-125V-218H157H-93h-20.833v20.833v125H-155.5c-34.27,0-62.5,28.23-62.5,62.5v187.5v20.833h20.833
		h83.333v62.5V282H-93h250h20.833v-20.833v-62.5h83.333H282v-20.833v-187.5C282-43.937,253.77-72.167,219.5-72.167z
		 M-72.167-176.333h208.333v104.167H-72.167V-176.333z M136.167,240.333H-72.167v-125h208.333V240.333z M240.333,157h-62.5V94.5
		V73.667H157H-93h-20.833V94.5V157h-62.5V-9.667c0-11.771,9.062-20.833,20.833-20.833h375c11.771,0,20.833,9.062,20.833,20.833V157z
		"/>
	<circle cx="-134.667" cy="11.167" r="20.833"/>
</g>
</svg>
