<?xml version="1.0" encoding="utf-8"?>
<!-- Generator: Adobe Illustrator 17.0.0, SVG Export Plug-In . SVG Version: 6.00 Build 0)  -->
<!DOCTYPE svg PUBLIC "-//W3C//DTD SVG 1.1//EN" "http://www.w3.org/Graphics/SVG/1.1/DTD/svg11.dtd">
<svg version="1.1" id="Layer_1" xmlns="http://www.w3.org/2000/svg" xmlns:xlink="http://www.w3.org/1999/xlink" x="0px" y="0px"
	 width="500px" height="500.074px" viewBox="0 0 500 500.074" enable-background="new 0 0 500 500.074" xml:space="preserve">
<g>
	<path fill="none" d="M363.735,101.692c-9.236,0-17.922,3.6-24.455,10.147c-13.477,13.476-13.455,35.413,0.044,48.913
		c13.038,13.023,35.807,12.981,48.868-0.048c6.536-6.523,10.125-15.184,10.125-24.431c0-9.248-3.589-17.907-10.113-24.434
		C381.655,105.292,372.96,101.692,363.735,101.692z"/>
	<path fill="none" d="M168.22,340.877c-4.544-0.924-8.11-4.479-9.022-9.024c-1.44-7.178-2.53-14.895-3.306-23.49
		c-6.618-4.662-13.615-8.714-20.878-12.169c-0.266,2.53-1.361,4.988-3.296,6.928c-29.271,29.295-44.098,68.306-40.634,105.856
		c37.607,3.375,76.553-11.429,105.824-40.655c1.968-1.967,4.473-3.074,7.044-3.32c-3.477-7.202-7.554-14.172-12.242-20.82
		C183.149,343.417,175.42,342.315,168.22,340.877z"/>
	<path fill="none" d="M474.259,25.78c-74.987-12.058-158.29,17.122-217.506,76.338c-26.886,26.841-47.561,58.454-61.444,93.931
		c-2.036,5.22-7.593,8.237-13.049,7.089c-47.112-9.675-96.405,4.746-130.018,38.294c-6.423,6.433-12.174,13.43-17.213,20.946
		c46.988-10.484,99.523,0.81,138.873,30.62c2.633,2.004,4.287,5.039,4.522,8.346c0.496,6.636,1.148,12.689,2.014,18.292
		c5.614,0.854,11.655,1.529,18.292,2.002c3.306,0.248,6.345,1.89,8.347,4.545c30.372,40.07,41.173,91.187,30.531,138.861
		c7.57-5.039,14.579-10.799,20.967-17.232c33.871-33.841,48.192-82.438,38.327-130.02c-1.136-5.512,1.857-11.024,7.087-13.075
		c35.503-13.88,67.091-34.533,93.91-61.397C457.554,183.723,486.375,101.063,474.259,25.78z M404.468,176.994
		c-10.865,10.89-25.345,16.875-40.733,16.875c-15.367,0-29.812-5.962-40.688-16.829c-22.488-22.477-22.511-59.035-0.057-81.491
		c21.778-21.778,59.712-21.778,81.49,0c10.879,10.844,16.876,25.314,16.876,40.724C421.355,151.683,415.358,166.152,404.468,176.994
		z"/>
	<path d="M495.464,13.609c-0.91-4.57-4.476-8.144-9.031-9.046C471.234,1.528,455.461,0,439.544,0
		c-71.961,0-144.531,31.27-199.079,85.83c-26.91,26.864-48.091,58.136-63.032,93.054c-52.016-7.558-104.639,9.473-141.483,46.258
		C20.989,240.102,9.189,257.721,0.9,277.474c-1.813,4.318-0.834,9.292,2.474,12.598c3.306,3.305,8.289,4.275,12.609,2.474
		c30.732-12.908,65.982-14.095,98.155-4.407c-35.813,36.62-52.512,86.206-44.686,133.008c0.811,4.862,4.624,8.664,9.473,9.475
		c7.57,1.26,15.208,1.865,22.848,1.865c39.727,0,79.601-16.66,110.315-46.793c9.866,32.068,8.591,66.971-4.651,98.384
		c-1.81,4.32-0.843,9.314,2.475,12.62c2.205,2.206,5.153,3.374,8.144,3.374c1.509,0,3.027-0.291,4.479-0.897
		c19.956-8.415,37.583-20.228,52.353-35.1c37.102-37.055,54.042-89.341,46.268-141.493c34.929-14.915,66.193-36.086,93.044-62.972
		C481.247,192.606,512.383,98.337,495.464,13.609z M196.908,368.323c-29.271,29.226-68.217,44.03-105.824,40.655
		c-3.465-37.551,11.363-76.562,40.634-105.856c1.935-1.94,3.03-4.398,3.296-6.928c7.263,3.455,14.261,7.507,20.878,12.169
		c0.777,8.596,1.866,16.312,3.306,23.49c0.912,4.544,4.478,8.1,9.022,9.024c7.2,1.438,14.929,2.54,23.49,3.306
		c4.688,6.648,8.765,13.618,12.242,20.82C201.381,365.249,198.876,366.356,196.908,368.323z M303.989,304.718
		c-5.23,2.05-8.223,7.562-7.087,13.075c9.865,47.583-4.456,96.179-38.327,130.02c-6.389,6.433-13.397,12.193-20.967,17.232
		c10.642-47.673-0.159-98.791-30.531-138.861c-2.002-2.655-5.041-4.297-8.347-4.545c-6.637-0.474-12.678-1.148-18.292-2.002
		c-0.866-5.604-1.518-11.656-2.014-18.292c-0.235-3.308-1.889-6.342-4.522-8.346c-39.35-29.81-91.885-41.104-138.873-30.62
		c5.039-7.516,10.79-14.513,17.213-20.946c33.613-33.548,82.907-47.969,130.018-38.294c5.456,1.148,11.013-1.868,13.049-7.089
		c13.884-35.477,34.558-67.09,61.444-93.931c59.216-59.216,142.519-88.396,217.506-76.338
		c12.116,75.283-16.705,157.943-76.359,217.54C371.08,270.185,339.492,290.838,303.989,304.718z"/>
	<path d="M322.989,95.548c-22.454,22.455-22.431,59.014,0.057,81.491c10.876,10.867,25.322,16.829,40.688,16.829
		c15.388,0,29.867-5.984,40.733-16.875c10.89-10.842,16.887-25.311,16.887-40.721c0-15.41-5.997-29.88-16.876-40.724
		C382.701,73.771,344.767,73.771,322.989,95.548z M388.191,160.703c-13.061,13.029-35.83,13.072-48.868,0.048
		c-13.498-13.5-13.521-35.437-0.044-48.913c6.534-6.547,15.219-10.147,24.455-10.147c9.224,0,17.92,3.6,24.468,10.147
		c6.524,6.526,10.113,15.186,10.113,24.434C398.316,145.519,394.727,154.18,388.191,160.703z"/>
</g>
</svg>
