<?xml version="1.0" encoding="utf-8"?><!-- Generator: Adobe Illustrator 17.0.2, SVG Export Plug-In . SVG Version: 6.00 Build 0)  --><!DOCTYPE svg PUBLIC "-//W3C//DTD SVG 1.0//EN" "http://www.w3.org/TR/2001/REC-SVG-20010904/DTD/svg10.dtd"><svg xmlns="http://www.w3.org/2000/svg" xmlns:xlink="http://www.w3.org/1999/xlink" version="1.0" id="Layer_1" x="0px" y="0px" width="26.034px" height="26.034px" viewBox="0 0 26.034 26.034" style="enable-background:new 0 0 26.034 26.034;" xml:space="preserve">
<g>
	<path d="M13.761,14.377l1.473-2.1l-1.501-1.5l-2.071,1.49c-0.518-0.313-1.083-0.552-1.686-0.701l-0.44-2.515H7.411l-0.408,2.507   c-0.604,0.147-1.172,0.383-1.69,0.693l-2.065-1.475l-1.502,1.5l1.453,2.078c-0.313,0.521-0.553,1.088-0.704,1.695L0,16.464v2.123   l2.492,0.441c0.15,0.606,0.39,1.175,0.705,1.696l-1.474,2.06l1.501,1.502l2.081-1.457c0.521,0.313,1.087,0.549,1.69,0.697   l0.416,2.508h2.124l0.446-2.515c0.6-0.151,1.166-0.391,1.681-0.704l2.095,1.471l1.501-1.502l-1.495-2.076   c0.31-0.517,0.545-1.079,0.692-1.679l2.526-0.44h0v-2.123l-2.526-0.413C14.306,15.455,14.071,14.893,13.761,14.377z M8.491,20.505   c-1.636,0-2.961-1.325-2.961-2.961c0-1.635,1.325-2.96,2.961-2.96c1.635,0,2.96,1.325,2.96,2.96   C11.451,19.18,10.126,20.505,8.491,20.505z"/>
	<path d="M24.177,7.223c0.072-0.467,0.072-0.932,0.006-1.389l1.658-1.044l-0.617-1.503l-1.901,0.441   c-0.271-0.375-0.602-0.708-0.982-0.994l0.432-1.902l-1.499-0.627l-1.027,1.647c-0.47-0.074-0.939-0.076-1.398-0.01l-1.021-1.649   l-1.503,0.613l0.412,1.896c-0.375,0.273-0.711,0.605-0.998,0.988l-1.883-0.445L13.23,4.742l1.628,1.051   c-0.073,0.47-0.072,0.94-0.004,1.403l-1.646,1.017l0.615,1.505l1.897-0.414c0.275,0.373,0.604,0.706,0.987,0.99l-0.445,1.893   l1.497,0.625l1.058-1.642c0.467,0.07,0.938,0.068,1.394-0.002l1.044,1.657l1.501-0.617l-0.441-1.904   c0.37-0.273,0.702-0.602,0.983-0.979l1.914,0.433l0,0l0.625-1.497L24.177,7.223z M21.618,7.389   c-0.482,1.153-1.809,1.696-2.963,1.214c-1.152-0.482-1.697-1.808-1.215-2.964c0.482-1.152,1.81-1.695,2.963-1.213   C21.556,4.909,22.1,6.235,21.618,7.389z"/>
</g>
</svg>