<?xml version="1.0" encoding="utf-8"?><!-- Generator: Adobe Illustrator 17.0.2, SVG Export Plug-In . SVG Version: 6.00 Build 0)  --><!DOCTYPE svg PUBLIC "-//W3C//DTD SVG 1.0//EN" "http://www.w3.org/TR/2001/REC-SVG-20010904/DTD/svg10.dtd"><svg xmlns="http://www.w3.org/2000/svg" xmlns:xlink="http://www.w3.org/1999/xlink" version="1.0" id="Layer_1" x="0px" y="0px" width="26px" height="26px" viewBox="0 0 26 26" style="fill: rgb(0, 0, 0);" xml:space="preserve">
<g>
	<path d="M0,2.889v20.223L15,26V0L0,2.889L0,2.889z M3.805,9.476c0.207-0.37,0.489-0.675,0.845-0.914   c0.358-0.238,0.77-0.414,1.24-0.527c0.47-0.113,0.965-0.169,1.49-0.169c0.515,0,0.971,0.031,1.369,0.093   c0.397,0.062,0.764,0.157,1.1,0.286v2.062c-0.166-0.115-0.346-0.216-0.542-0.303c-0.196-0.087-0.396-0.16-0.604-0.217   C8.495,9.73,8.29,9.687,8.086,9.659C7.882,9.632,7.688,9.618,7.503,9.618c-0.253,0-0.483,0.024-0.689,0.072   C6.607,9.739,6.432,9.807,6.29,9.894c-0.142,0.087-0.253,0.192-0.331,0.313c-0.078,0.122-0.117,0.259-0.117,0.411   c0,0.166,0.044,0.313,0.131,0.445c0.087,0.131,0.212,0.255,0.373,0.373c0.161,0.117,0.356,0.232,0.586,0.345   c0.23,0.112,0.49,0.229,0.779,0.348c0.396,0.166,0.75,0.341,1.065,0.528c0.315,0.186,0.585,0.396,0.811,0.631   c0.225,0.234,0.397,0.502,0.517,0.804c0.12,0.301,0.179,0.651,0.179,1.052c0,0.55-0.105,1.013-0.314,1.388   c-0.209,0.374-0.493,0.679-0.852,0.91c-0.358,0.232-0.776,0.399-1.251,0.5c-0.476,0.102-0.979,0.151-1.507,0.151   c-0.543,0-1.059-0.045-1.549-0.138c-0.489-0.092-0.914-0.229-1.272-0.413v-2.207c0.4,0.335,0.835,0.587,1.304,0.755   c0.469,0.168,0.942,0.251,1.421,0.251c0.28,0,0.525-0.024,0.734-0.075c0.209-0.051,0.384-0.12,0.524-0.21   c0.14-0.09,0.245-0.195,0.313-0.317c0.068-0.122,0.104-0.255,0.104-0.397c0-0.192-0.055-0.365-0.166-0.517   c-0.111-0.152-0.261-0.292-0.452-0.421c-0.191-0.129-0.417-0.253-0.68-0.372c-0.262-0.12-0.544-0.242-0.848-0.366   c-0.772-0.322-1.348-0.715-1.728-1.179c-0.379-0.465-0.569-1.025-0.569-1.683C3.495,10.289,3.599,9.846,3.805,9.476z"/>
	<path d="M26,13c0-1.623-1.291-2.937-2.902-2.99c-0.664-1.349-1.759-2.444-3.108-3.108C19.937,5.292,18.623,4,17,4   c-0.353,0-0.686,0.072-1,0.184v5.632C16.314,9.928,16.647,10,17,10c1.103,0,2.057-0.602,2.578-1.489   c0.796,0.459,1.452,1.115,1.911,1.911C20.602,10.943,20,11.897,20,13s0.602,2.057,1.489,2.578   c-0.459,0.796-1.115,1.452-1.911,1.911C19.057,16.602,18.103,16,17,16c-0.353,0-0.686,0.072-1,0.184v5.633   C16.314,21.928,16.647,22,17,22c1.623,0,2.937-1.291,2.99-2.902c1.349-0.664,2.444-1.759,3.108-3.108   C24.709,15.937,26,14.623,26,13z"/>
</g>
</svg>