<?xml version="1.0" encoding="utf-8"?>
<!-- Generator: Adobe Illustrator 17.0.0, SVG Export Plug-In . SVG Version: 6.00 Build 0)  -->
<!DOCTYPE svg PUBLIC "-//W3C//DTD SVG 1.1//EN" "http://www.w3.org/Graphics/SVG/1.1/DTD/svg11.dtd">
<svg version="1.1" id="Layer_1" xmlns="http://www.w3.org/2000/svg" xmlns:xlink="http://www.w3.org/1999/xlink" x="0px" y="0px"
	 width="1477.914px" height="1484.985px" viewBox="0 0 1477.914 1484.985" enable-background="new 0 0 1477.914 1484.985"
	 xml:space="preserve">
<path d="M1477.914,1252.985c0,26.667-9.333,49.333-28,68l-136,136c-18.667,18.667-41.333,28-68,28s-49.333-9.333-68-28
	L728.35,1021.563L300,1458.701c-18.667,18.667-41.333,28-68,28s-49.333-9.333-68-28l-136-136c-18.667-18.667-28-41.333-28-68
	s9.333-49.333,28-68l428.35-437.137L28,321.213c-18.667-18.667-28-41.333-28-68c0-26.667,9.333-49.333,28-68l136-136
	c18.667-18.667,41.333-28,68-28s49.333,9.333,68,28l428.35,428.35L1177.914,28c18.667-18.667,41.333-28,68-28
	c26.667,0,49.333,9.333,68,28l136,136c18.667,18.667,28,41.333,28,68s-9.333,49.333-28,68L1000.35,749.563l449.564,435.421
	C1468.58,1203.651,1477.914,1226.318,1477.914,1252.985z"/>
</svg>
