<?xml version="1.0" encoding="utf-8"?>
<!-- Generator: Adobe Illustrator 17.0.0, SVG Export Plug-In . SVG Version: 6.00 Build 0)  -->
<!DOCTYPE svg PUBLIC "-//W3C//DTD SVG 1.1//EN" "http://www.w3.org/Graphics/SVG/1.1/DTD/svg11.dtd">
<svg version="1.1" id="Layer_1" xmlns:sketch="http://www.bohemiancoding.com/sketch/ns"
	 xmlns="http://www.w3.org/2000/svg" xmlns:xlink="http://www.w3.org/1999/xlink" x="0px" y="0px" width="250px" height="175.836px"
	 viewBox="-95 -57.488 250 175.836" enable-background="new -95 -57.488 250 175.836" xml:space="preserve">
<title></title>
<desc></desc>
<g id="slice" transform="translate(-500.000000, -100.000000)">
</g>
<g>
	<polygon fill="none" points="4.191,62.856 71.73,27.856 4.181,-7.386 	"/>
	<path d="M152.505-19.555c0,0-2.445-17.228-9.941-24.817c-9.503-9.955-20.161-10.003-25.047-10.586
		c-34.984-2.531-87.461-2.531-87.461-2.531h-0.111c0,0-52.475,0-87.461,2.531c-4.886,0.584-15.539,0.631-25.047,10.586
		c-7.498,7.589-9.937,24.817-9.937,24.817S-95,0.676-95,20.906v18.97c0,20.228,2.5,40.458,2.5,40.458s2.439,17.228,9.936,24.816
		c9.508,9.959,22,9.639,27.564,10.684c20.003,1.92,85,2.514,85,2.514s52.534-0.08,87.517-2.608
		c4.886-0.584,15.545-0.631,25.047-10.589c7.497-7.589,9.941-24.816,9.941-24.816S155,60.103,155,39.876V20.906
		C155,0.676,152.505-19.555,152.505-19.555z M4.191,62.856L4.181-7.385l67.55,35.242L4.191,62.856z"/>
</g>
</svg>
